,C-index Test,C-index Test,C-index Test,C-index Test,C-index Test,C-index Test,C-index Test,C-index Test,C-index Train,C-index Train,C-index Train,C-index Train,C-index Train,C-index Train,C-index Train,C-index Train
,count,mean,std,min,25%,50%,75%,max,count,mean,std,min,25%,50%,75%,max
ModelName,,,,,,,,,,,,,,,,
cgbs,20.0,0.5492881625429166,0.0474115584224286,0.40789473684210525,0.523731358087247,0.5561453204667306,0.5814977014866478,0.6126094570928197,20.0,0.636865130063519,0.021876598452934826,0.5905139787571725,0.6241478361960466,0.6397684446855436,0.6527708268288579,0.6713479623824451
coxnet,20.0,0.5634174376342791,0.05568182588955389,0.4827485380116959,0.5242485215596293,0.5550511646734179,0.605645740567041,0.662203519510329,20.0,0.6708955243032471,0.018907636427016566,0.6397400498350058,0.6539504485437863,0.6750972483685027,0.6811148154802817,0.7113605015673982
deep_residual,20.0,0.48202858276405547,0.057205581506484346,0.39389067524115756,0.452592406548759,0.46374032303830437,0.5327380645272246,0.5865497076023392,20.0,0.5148044478873227,0.0426818482272218,0.45031161335693676,0.4828191247018111,0.511291768243679,0.546948180710155,0.606582404317262
deep_surv,20.0,0.48710301682429175,0.07609036886904132,0.38143013498723094,0.4293520868978173,0.4580359996142971,0.5657456021642441,0.6560830860534125,20.0,0.5069693171891185,0.03523862592723765,0.45853238596406143,0.47667597710662857,0.5014071685096779,0.5410967455408426,0.5643585847623183
deep_surv_ori,20.0,0.491357270848921,0.07809019330995015,0.3726742064939803,0.43840445265306116,0.4798455824191986,0.5059883266977604,0.6758785397475264,20.0,0.49821309483371046,0.03230874041602996,0.4291898052719645,0.48281319542230333,0.49935569452472994,0.5236800404311557,0.551656302996043
fksvm_cosine,20.0,0.5755540591070281,0.0513034020981768,0.49562203575337466,0.5426703369049777,0.5675249495923991,0.6115468186215809,0.6957070707070707,20.0,0.7099220059740703,0.015694179579208965,0.6812110853375656,0.6992665922349202,0.7116124052682373,0.7179392195389771,0.7483009404388715
fksvm_linear,20.0,0.5748471073116501,0.05401557633587704,0.5069317767238234,0.5258858546725881,0.56998653862718,0.6160672078974099,0.6861111111111111,20.0,0.7118728255685889,0.01617275989012333,0.6766206812355023,0.7025184830734887,0.7124749068875645,0.7244831184293893,0.74458934169279
fksvm_poly,20.0,0.3991467314790217,0.07116924899790363,0.30522088353413657,0.35775888915969345,0.3685899307325731,0.43127959350093087,0.5704057279236276,20.0,0.9478289476775427,0.05207443803877084,0.7345172083011628,0.9414113025753007,0.9645402922852206,0.9699301292175522,0.9762131661442006
fksvm_rbf,20.0,0.4328350842032765,0.05387766552764863,0.3650602409638554,0.39289788483129606,0.4240911706671119,0.4499882803304543,0.54842894205823,20.0,0.9794836010604856,0.005043245919347913,0.9618849957270175,0.9782723795517319,0.9805589323114636,0.9826932784063056,0.9859955864878629
fsvm,20.0,0.5748030377283329,0.05342007008882335,0.509850419554907,0.525666556426974,0.5701306723833057,0.6158710051267168,0.6840909090909091,20.0,0.7117545243954446,0.016146660205384616,0.6764741789769259,0.7025249812407232,0.7121874629782625,0.7242024006793959,0.744614420062696
gbs,20.0,0.5369392515321944,0.05727661511612151,0.40934343434343434,0.5030330325309614,0.5444721162744868,0.5742069691515508,0.6194322075379344,20.0,0.8023952573608574,0.01787606718903548,0.7749701691584193,0.7884174460459635,0.8002980749144785,0.8174472327049114,0.8380865428509646
stacking_a,20.0,0.456432251126217,0.05607081629551487,0.36742424242424243,0.4136231265187199,0.4582885359422669,0.5011220825852782,0.5468630451415455,20.0,0.9799619081583778,0.0024909306110417495,0.9756562080332072,0.9783383651658679,0.979722579069092,0.981475987733014,0.9844714917697783
xgb_surv,20.0,0.5585866377698244,0.062068917871716464,0.4508421464943204,0.5054164939595989,0.5663965423070505,0.602770099964379,0.6720763723150358,20.0,0.7719002020798241,0.015141414344772466,0.743237396967075,0.7581562951926089,0.7715824537563186,0.7838991206017357,0.7943473136234162
