,C-index Test,C-index Test,C-index Test,C-index Test,C-index Test,C-index Test,C-index Test,C-index Test,C-index Train,C-index Train,C-index Train,C-index Train,C-index Train,C-index Train,C-index Train,C-index Train
,count,mean,std,min,25%,50%,75%,max,count,mean,std,min,25%,50%,75%,max
ModelName,,,,,,,,,,,,,,,,
cgbs,20.0,0.44452529297727034,0.10178215236109928,0.29136690647482016,0.37944947209653096,0.4294726088622143,0.49238931683784626,0.6576923076923077,20.0,0.662132334939034,0.045513254074127096,0.5500815660685155,0.6413901397101962,0.670320677088668,0.6913347007808845,0.7290540540540541
coxnet,20.0,0.4794427991425351,0.08571298337670714,0.30952380952380953,0.41908534149913457,0.47879901960784316,0.5291069640046604,0.6492146596858639,20.0,0.7579674986164413,0.028385562614602053,0.7088683189011645,0.7456469598916713,0.7536366797886147,0.7723042297561907,0.8327326343381389
deep_residual,20.0,0.549271604302198,0.10759683813223711,0.360377358490566,0.46549401405516516,0.552991452991453,0.6239382474981694,0.7361963190184049,20.0,0.4879223148988362,0.04194517266538809,0.41158082762727,0.4576120114521008,0.4955484508292266,0.5090750467106978,0.568545803971813
deep_surv,20.0,0.49357373274485844,0.1259703277556621,0.2724867724867725,0.42107468968469114,0.47027151403589507,0.5447354771784232,0.7643979057591623,20.0,0.4960873252848497,0.05076430453621265,0.40801969750263806,0.46081224232707285,0.5006055534863916,0.5312051168965395,0.5856815203145478
deep_surv_ori,20.0,0.4678434108404893,0.12950690334154935,0.24632352941176472,0.3870557598039216,0.4698327929302562,0.5481087522619941,0.7382198952879581,20.0,0.49240025752141464,0.04678143897536519,0.41837340457108935,0.45428547185114226,0.4825938784176671,0.5233750064882816,0.5852289960570215
fksvm_cosine,20.0,0.500806984844177,0.08710485643582082,0.336734693877551,0.4577968923418424,0.5042772596843615,0.5580488130168045,0.6596858638743456,20.0,0.7774147305211987,0.028660864167567558,0.7177814029363785,0.7605317841754,0.780763187615914,0.798335671649997,0.8253604193971167
fksvm_linear,20.0,0.5011722387581852,0.09034869447902882,0.2891156462585034,0.44833091436865025,0.4977022058823529,0.5368457520947147,0.6910994764397905,20.0,0.7919462058836085,0.02270208785884071,0.7468189233278956,0.7765584218491675,0.7942371947145601,0.8087862280424423,0.8394495412844036
fksvm_poly,20.0,0.4796115413986547,0.09576669500688412,0.2661290322580645,0.42956581875037586,0.47378303996330484,0.5446889996308601,0.6433823529411765,20.0,0.962111821814703,0.005453060437394764,0.9532019704433498,0.9591073860439174,0.962314238353104,0.9653502210347545,0.9743997175141242
fksvm_rbf,20.0,0.4757735148851509,0.09994911298153579,0.25,0.4099932634415393,0.48141717419952273,0.5455653092445545,0.6507352941176471,20.0,0.9658607512962011,0.0056247731397594284,0.9559079818752179,0.9628061144530189,0.9660144433287231,0.969831021142638,0.9768714689265536
fsvm,20.0,0.5001585866029655,0.08864071655193369,0.2891156462585034,0.44825028221254637,0.49834558823529407,0.5339499991989619,0.680628272251309,20.0,0.791941366212685,0.023285435348943524,0.7473083197389886,0.7761580374801732,0.7947616419124309,0.8098671873817369,0.8422346002621232
gbs,20.0,0.45639221115343503,0.1044063061805858,0.2863247863247863,0.37418193717277487,0.45035852178709324,0.4854525862068965,0.7415458937198067,20.0,0.9395475611381121,0.008074026128225855,0.9170305676855895,0.9339000689284408,0.9406160380637874,0.94624087719869,0.949748743718593
stacking_a,20.0,0.4385168042126354,0.09180469206110596,0.2670157068062827,0.36295313881520774,0.447859927756436,0.4898959583833533,0.5843023255813954,20.0,0.9733903162623403,0.0038474093263229786,0.9674991447143346,0.9710897738775572,0.9733099144231177,0.9758006691609707,0.9828742937853108
xgb_surv,20.0,0.4566416606923907,0.0941751693800612,0.2782258064516129,0.3985932707055215,0.44373219373219375,0.5235994397759104,0.6596858638743456,20.0,0.606489606032851,0.028171115309662438,0.5378180550714534,0.5851785467465378,0.6135197599657454,0.6288227042788663,0.6402180496668686
