ModelName,C-index Train,C-index Test
fksvm_poly,0.9053241256404544,0.5152400835073069
coxnet,0.6863722432613054,0.5348643006263049
deep_surv,0.5729839607930497,0.5290187891440501
deep_surv_ori,0.523334818445088,0.45636743215031317
fksvm_rbf,0.9384606816662954,0.5544885177453027
fsvm,0.705418801514814,0.5544885177453027
stacking_a,0.9513533080864335,0.5582463465553236
gbs,0.8164819558921809,0.5294363256784969
fksvm_cosine,0.7171419024281577,0.5724425887265135
deep_residual,0.515008910670528,0.5311064718162839
cgbs,0.6608515259523279,0.569937369519833
xgb_surv,0.723128759189129,0.587473903966597
fksvm_linear,0.7058086433504122,0.5553235908141962
fksvm_poly,0.8980715534563294,0.5475125768585802
coxnet,0.6697372198011534,0.6101173840134153
deep_surv,0.48234649408940267,0.43907210732252655
deep_surv_ori,0.488113566973722,0.4888205701509223
fksvm_rbf,0.9372406774353488,0.5184460592509782
fsvm,0.6852639544897053,0.6335941866964785
stacking_a,0.9572166697111244,0.5212409167132476
gbs,0.8149056653010099,0.6076020122973729
fksvm_cosine,0.69523237911328,0.6621017328116267
deep_residual,0.5118081469690248,0.6537171604248183
cgbs,0.6553717282951906,0.6498043599776412
xgb_surv,0.7142167479971817,0.4538848518725545
fksvm_linear,0.6853161451945409,0.6347121296813862
fksvm_poly,0.897598627787307,0.4449152542372881
coxnet,0.6961736376830716,0.5873940677966102
deep_surv,0.4939701807626336,0.4962923728813559
deep_surv_ori,0.4914632537274047,0.4602754237288136
fksvm_rbf,0.9371025201213881,0.4655720338983051
fsvm,0.7108457580155694,0.5609110169491526
stacking_a,0.948673967541892,0.5097987288135594
gbs,0.8123631085895237,0.591896186440678
fksvm_cosine,0.7152262831508115,0.5979872881355932
deep_residual,0.5297796543079561,0.4894067796610169
cgbs,0.6551919778334873,0.6096398305084746
xgb_surv,0.6847869112020055,0.5060911016949152
fksvm_linear,0.7106874257817654,0.5603813559322034
fksvm_poly,0.9003231698749473,0.5888756927949327
coxnet,0.6989040325980048,0.5892715756136183
deep_surv,0.5454966980469299,0.4649643705463183
deep_surv_ori,0.4067584656456372,0.465360253365004
fksvm_rbf,0.9416186595475622,0.5461203483768804
fsvm,0.7138119994379655,0.5405779889152811
stacking_a,0.957720949838415,0.5439429928741093
gbs,0.8232120275396937,0.5839271575613618
fksvm_cosine,0.7258114374034003,0.533452098178939
deep_residual,0.5140227623998876,0.5005938242280285
cgbs,0.6561332021919348,0.6070863024544735
xgb_surv,0.7180975129970493,0.47565320665083133
fksvm_linear,0.7146550512856541,0.5409738717339667
fksvm_poly,0.8977186525440396,0.5040096230954291
coxnet,0.6678419914028039,0.6649959903769046
deep_surv,0.5169836765656168,0.4356455493183641
deep_surv_ori,0.4678167055319866,0.42441860465116277
fksvm_rbf,0.9409293962295957,0.5180433039294307
fsvm,0.6898126036018318,0.6810344827586207
stacking_a,0.9477144382322367,0.5338813151563753
gbs,0.8035006883375945,0.6140737770649559
fksvm_cosine,0.7032000674289889,0.6443464314354451
deep_residual,0.47588008878150195,0.5006014434643143
cgbs,0.6418677829910375,0.636327185244587
xgb_surv,0.6354901244626753,0.5356856455493184
fksvm_linear,0.6907537999044756,0.6764234161988774
fksvm_poly,0.885633423180593,0.5768509840674789
coxnet,0.6870350404312668,0.6293345829428304
deep_surv,0.5315363881401617,0.4709465791940019
deep_surv_ori,0.5033692722371967,0.5435801312089972
fksvm_rbf,0.9446630727762804,0.5093720712277413
fsvm,0.6963342318059299,0.612464854732896
stacking_a,0.9563611859838275,0.5264761012183693
gbs,0.8045283018867925,0.5477975632614808
fksvm_cosine,0.7072776280323451,0.6218369259606373
deep_residual,0.4491644204851752,0.38847235238987815
cgbs,0.6729514824797843,0.5663074039362699
xgb_surv,0.676711590296496,0.47680412371134023
fksvm_linear,0.6963342318059299,0.6115276476101218
fksvm_poly,0.8846712774832477,0.5675349734684033
coxnet,0.676619392341021,0.6345875542691751
deep_surv,0.48883177695847574,0.5434153400868307
deep_surv_ori,0.4820770203719153,0.5
fksvm_rbf,0.9274065502300923,0.5718765074770863
fsvm,0.696506902769181,0.6336227689339122
stacking_a,0.949379692672031,0.5834539315002412
gbs,0.7901315966522242,0.6157742402315485
fksvm_cosine,0.7050647218708792,0.6394114809454896
deep_residual,0.5081810597701768,0.5303907380607815
cgbs,0.6539196426168626,0.6439942112879884
xgb_surv,0.7293253316827687,0.47395079594790157
fksvm_linear,0.696560725530827,0.6331403762662807
fksvm_poly,0.8398587420042644,0.6352028042063095
coxnet,0.6870069296375266,0.6321982974461693
deep_surv,0.4817830490405117,0.48647971957936903
deep_surv_ori,0.47527985074626866,0.485478217325989
fksvm_rbf,0.944203091684435,0.5781171757636455
fsvm,0.700253198294243,0.5961442163244868
stacking_a,0.9501066098081024,0.5966449674511768
gbs,0.796002132196162,0.6089133700550826
fksvm_cosine,0.7052372068230277,0.6116675012518779
deep_residual,0.5360474413646056,0.528542814221332
cgbs,0.6538646055437101,0.6652478718077116
xgb_surv,0.6823560767590618,0.4116174261392088
fksvm_linear,0.6959621535181236,0.6031547320981472
fksvm_poly,0.8738512839363546,0.566538882803943
coxnet,0.6840177493042062,0.6065169769989047
deep_surv,0.5465919235414588,0.6004928806133626
deep_surv_ori,0.48168618389959567,0.5024644030668127
fksvm_rbf,0.9541957674736123,0.528751369112815
fsvm,0.7103528855747518,0.589539978094195
stacking_a,0.9548127921020848,0.5454545454545454
gbs,0.8026177598067531,0.5139649507119387
fksvm_cosine,0.7207766633408602,0.578039430449069
deep_residual,0.4426167095520664,0.4301752464403067
cgbs,0.6595730714698315,0.5985761226725083
xgb_surv,0.6770860683715801,0.5711938663745892
fksvm_linear,0.7077797615921861,0.589539978094195
fksvm_poly,0.7917121195592888,0.5428441203281678
coxnet,0.6870977419002945,0.5749772105742935
deep_surv,0.5364623104614378,0.49225159525979945
deep_surv_ori,0.5451619941093051,0.5159525979945305
fksvm_rbf,0.9413248609141486,0.5371467639015497
fsvm,0.7021244682011564,0.5845487693710119
stacking_a,0.9531062506817934,0.5608477666362808
gbs,0.801870841060325,0.5854603463992707
fksvm_cosine,0.7041698483691502,0.6378760255241568
deep_residual,0.5219537471364678,0.4804010938924339
cgbs,0.6607941529398931,0.5642661804922516
xgb_surv,0.6839205847060107,0.5389699179580675
fksvm_linear,0.7021790116723028,0.5840929808568824
fksvm_poly,0.8719792557741659,0.5522940305870745
coxnet,0.6724898417450813,0.715836211149482
deep_surv,0.42815707869974334,0.44005920078934385
deep_surv_ori,0.4868076347305389,0.5698075974346325
fksvm_rbf,0.9426459580838323,0.5182535767143562
fsvm,0.6875133661248931,0.6714356191415886
stacking_a,0.9536997433704021,0.5416872224963
gbs,0.8062847519247219,0.660828811050814
fksvm_cosine,0.7021626390076989,0.6768623581647756
deep_residual,0.5263178999144568,0.5392205229403059
cgbs,0.6252004918733961,0.6484953132708436
xgb_surv,0.6548599230111206,0.5101134681795757
fksvm_linear,0.6874866338751069,0.6721756290083868
fksvm_poly,0.8994618592762007,0.4992867332382311
coxnet,0.6796582806403875,0.5910603899191631
deep_surv,0.504480021525629,0.5135520684736091
deep_surv_ori,0.5046145567065787,0.5520684736091298
fksvm_rbf,0.9365397551459707,0.5073704232049453
fsvm,0.699219695950491,0.625772705658583
stacking_a,0.9570698237589129,0.5
gbs,0.814058926409256,0.5803613884926295
fksvm_cosine,0.7023140051123369,0.6343319067998098
deep_residual,0.5511906363514059,0.5339990489776509
cgbs,0.6625723126597606,0.6148359486447932
xgb_surv,0.6663392977263555,0.6005706134094151
fksvm_linear,0.6985739270819319,0.6252971944840704
fksvm_poly,0.8965971208608797,0.6338001514004542
coxnet,0.7138605077130019,0.588001514004542
deep_surv,0.45911679688617957,0.5289553368660106
deep_surv_ori,0.49829712944678173,0.5914080242240727
fksvm_rbf,0.9387252797573051,0.6175246025738077
fsvm,0.7197561603846484,0.5917865253595761
stacking_a,0.958286826364443,0.5987887963663892
gbs,0.8068028963109242,0.5985995457986374
fksvm_cosine,0.7129732978449386,0.6377744133232399
deep_residual,0.5569960791047767,0.5073807721423165
cgbs,0.6642483042843651,0.5817562452687358
xgb_surv,0.6932972725451475,0.5230885692657078
fksvm_linear,0.7198992587504651,0.5921650264950795
fksvm_poly,0.9014404745092501,0.5197550375345713
coxnet,0.688899872899308,0.5770446463848281
deep_surv,0.5273125264793108,0.4644409324377716
deep_surv_ori,0.5480440615732242,0.5233109442907942
fksvm_rbf,0.9299675187120463,0.5420782299486369
fsvm,0.709998587770089,0.566772026866851
stacking_a,0.9484959751447536,0.5576847096009483
gbs,0.8129925151814715,0.6068747530620309
fksvm_cosine,0.7103657675469567,0.5993678387988938
deep_residual,0.5132749611636774,0.5094824180165942
cgbs,0.6645389069340488,0.5691426313709996
xgb_surv,0.6732523654851009,0.5252864480442513
fksvm_linear,0.7101398107611919,0.5683524298696168
fksvm_poly,0.9030437051891328,0.5008760402978537
coxnet,0.6827321924017251,0.5705212439772229
deep_surv,0.47925995110293107,0.5446780551905388
deep_surv_ori,0.5429360217564486,0.5157687253613666
fksvm_rbf,0.9296349201988847,0.48138414367060883
fsvm,0.7038568249869517,0.5963644327639072
stacking_a,0.9562536054720765,0.43911519929916776
gbs,0.7892618740213718,0.580814717477004
fksvm_cosine,0.7093783479383567,0.6119141480508103
deep_residual,0.4558278163887592,0.4636443276390714
cgbs,0.6713869736010768,0.5713972842750766
xgb_surv,0.7147487844408428,0.546868155935173
fksvm_linear,0.7037469439331924,0.5963644327639072
fksvm_poly,0.8833724623670763,0.475974025974026
coxnet,0.6717718547161994,0.6313852813852814
deep_surv,0.5065736776688303,0.5034632034632035
deep_surv_ori,0.4826267090180914,0.5246753246753246
fksvm_rbf,0.9508493302030107,0.5097402597402597
fsvm,0.6882336693826819,0.6582251082251083
stacking_a,0.9607650876950697,0.5277056277056277
gbs,0.8010357685402568,0.6575757575757576
fksvm_cosine,0.6949178290291396,0.6525974025974026
deep_residual,0.42349123049302584,0.4844155844155844
cgbs,0.6402154398563734,0.6242424242424243
xgb_surv,0.6968650738848226,0.4976190476190476
fksvm_linear,0.6880679464162408,0.6569264069264069
fksvm_poly,0.8823011042877207,0.6132487975513774
coxnet,0.6687962988461432,0.6735898557061653
deep_surv,0.49651639908572687,0.4663314385658067
deep_surv_ori,0.5368325393109905,0.4584608657630083
fksvm_rbf,0.9379561038746455,0.6324879755137734
fsvm,0.6896703659846336,0.674901617839965
stacking_a,0.9523861977804092,0.6405771753388719
gbs,0.8011455952413736,0.6211193703541757
fksvm_cosine,0.6990058656679426,0.6567555749890687
deep_residual,0.46839974664720624,0.4475295146480105
cgbs,0.6452785503814061,0.6884564932225623
xgb_surv,0.6854294605237794,0.5341058154787932
fksvm_linear,0.6896152892903368,0.6738084827284653
fksvm_poly,0.8997705090275666,0.5697575499787324
coxnet,0.6856250172809467,0.6265418970650787
deep_surv,0.5337738822683662,0.42003402807316037
deep_surv_ori,0.4490834185860038,0.4336452573373033
fksvm_rbf,0.931456852932231,0.5153126329221608
fsvm,0.7048137805181519,0.6244151424925564
stacking_a,0.9472170763403103,0.5342407486176095
gbs,0.7966792932784029,0.5546575925138238
fksvm_cosine,0.7086017640390411,0.6450446618460229
deep_residual,0.4878203887521774,0.4391748192258613
cgbs,0.6585146680675754,0.5725223309230115
xgb_surv,0.6991871042663201,0.5633772862611655
fksvm_linear,0.7024359222495645,0.6310080816673755
fksvm_poly,0.8812003179650238,0.6240988671472708
coxnet,0.6806968733439321,0.5875386199794027
deep_surv,0.5054583995760467,0.4742533470648816
deep_surv_ori,0.522972972972973,0.5272914521112255
fksvm_rbf,0.935042395336513,0.4670442842430484
fsvm,0.7024774774774775,0.5128733264675592
stacking_a,0.9502384737678855,0.5064366632337796
gbs,0.8124536301006889,0.6755921730175077
fksvm_cosine,0.7116454689984102,0.5504634397528322
deep_residual,0.46269210386857446,0.4701338825952626
cgbs,0.6541732909379968,0.6459835221421215
xgb_surv,0.6831081081081081,0.407826982492276
fksvm_linear,0.70258346581876,0.5128733264675592
fksvm_poly,0.8633505343597553,0.6169322709163346
coxnet,0.6632264613822858,0.6177290836653386
deep_surv,0.5366156275554803,0.5472111553784861
deep_surv_ori,0.44274314073823423,0.4280876494023904
fksvm_rbf,0.9337055522657418,0.49342629482071715
fsvm,0.6856864901446578,0.6352589641434263
stacking_a,0.9502721145983137,0.4958167330677291
gbs,0.8039928940021994,0.5892430278884462
fksvm_cosine,0.6917773454022502,0.6667330677290837
deep_residual,0.5730197670811832,0.6400398406374502
cgbs,0.6431069001494515,0.6585657370517928
xgb_surv,0.6942447057496546,0.4762948207171315
fksvm_linear,0.6855172997208357,0.6352589641434263
