ModelName,C-index Train,C-index Test
fksvm_poly,1.0,
coxnet,1.0,
deep_surv,0.7547169811320755,
deep_surv_ori,0.35377358490566035,
fksvm_rbf,1.0,
fsvm,0.9716981132075472,
stacking_a,1.0,
gbs,0.9952830188679245,
fksvm_cosine,0.9622641509433962,
deep_residual,0.5424528301886793,
cgbs,0.7783018867924528,
xgb_surv,0.7028301886792453,
fksvm_linear,0.9811320754716981,
fksvm_poly,1.0,0.3
coxnet,1.0,0.4
deep_surv,0.32515337423312884,0.9
deep_surv_ori,0.50920245398773,0.7
fksvm_rbf,1.0,0.3
fsvm,0.9754601226993865,0.4
stacking_a,1.0,0.2
gbs,1.0,0.35
fksvm_cosine,0.950920245398773,0.8
deep_residual,0.44785276073619634,0.6
cgbs,0.6625766871165644,0.3
xgb_surv,0.6901840490797546,0.7
fksvm_linear,0.9754601226993865,0.4
fksvm_poly,1.0,0.5714285714285714
coxnet,1.0,0.8571428571428571
deep_surv,0.41954022988505746,0.2857142857142857
deep_surv_ori,0.28735632183908044,0.5714285714285714
fksvm_rbf,1.0,0.5714285714285714
fsvm,0.9712643678160919,0.5714285714285714
stacking_a,1.0,0.5714285714285714
gbs,0.9942528735632183,0.7142857142857143
fksvm_cosine,0.9655172413793104,0.5714285714285714
deep_residual,0.41379310344827586,0.8571428571428571
cgbs,0.8218390804597702,0.14285714285714285
xgb_surv,0.75,0.42857142857142855
fksvm_linear,0.9712643678160919,0.7142857142857143
fksvm_poly,1.0,1.0
coxnet,1.0,1.0
deep_surv,0.15508021390374332,0.0
deep_surv_ori,0.6524064171122995,0.0
fksvm_rbf,1.0,1.0
fsvm,0.9786096256684492,0.5
stacking_a,1.0,1.0
gbs,0.9946524064171123,1.0
fksvm_cosine,0.9625668449197861,1.0
deep_residual,0.5561497326203209,0.0
cgbs,0.8235294117647058,0.0
xgb_surv,0.7967914438502673,1.0
fksvm_linear,0.9786096256684492,0.5
fksvm_poly,1.0,0.3333333333333333
coxnet,1.0,0.5555555555555556
deep_surv,0.4409937888198758,0.0
deep_surv_ori,0.5900621118012422,0.3333333333333333
fksvm_rbf,1.0,0.2222222222222222
fsvm,1.0,0.4444444444444444
stacking_a,1.0,0.16666666666666666
gbs,1.0,0.2777777777777778
fksvm_cosine,1.0,0.3333333333333333
deep_residual,0.5590062111801242,0.6666666666666666
cgbs,0.8136645962732919,0.1111111111111111
xgb_surv,0.8788819875776398,0.6666666666666666
fksvm_linear,1.0,0.5555555555555556
fksvm_poly,1.0,0.3076923076923077
coxnet,1.0,0.15384615384615385
deep_surv,0.5850340136054422,0.3076923076923077
deep_surv_ori,0.7142857142857143,0.3076923076923077
fksvm_rbf,1.0,0.3076923076923077
fsvm,0.9659863945578231,0.23076923076923078
stacking_a,1.0,0.2692307692307692
gbs,1.0,0.19230769230769232
fksvm_cosine,0.9659863945578231,0.38461538461538464
deep_residual,0.272108843537415,0.6153846153846154
cgbs,0.7210884353741497,0.3076923076923077
xgb_surv,0.8605442176870748,0.3076923076923077
fksvm_linear,0.9591836734693877,0.15384615384615385
fksvm_poly,1.0,0.1
coxnet,1.0,0.1
deep_surv,0.5398773006134969,0.7
deep_surv_ori,0.7177914110429447,0.2
fksvm_rbf,1.0,0.4
fsvm,0.9877300613496932,0.2
stacking_a,1.0,0.55
gbs,0.9938650306748467,0.65
fksvm_cosine,0.9754601226993865,0.2
deep_residual,0.5030674846625767,0.4
cgbs,0.7668711656441718,0.3
xgb_surv,0.8404907975460123,0.7
fksvm_linear,1.0,0.2
fksvm_poly,1.0,0.0
coxnet,1.0,0.0
deep_surv,0.6770833333333334,1.0
deep_surv_ori,0.3333333333333333,1.0
fksvm_rbf,1.0,0.0
fsvm,1.0,0.0
stacking_a,1.0,1.0
gbs,0.9895833333333334,1.0
fksvm_cosine,0.9895833333333334,0.0
deep_residual,0.4635416666666667,0.0
cgbs,0.75,0.0
xgb_surv,0.7057291666666666,0.25
fksvm_linear,1.0,0.0
fksvm_poly,1.0,0.0
coxnet,1.0,0.1875
deep_surv,0.4642857142857143,0.1875
deep_surv_ori,0.4,0.3125
fksvm_rbf,1.0,0.125
fsvm,1.0,0.25
stacking_a,1.0,0.28125
gbs,1.0,0.3125
fksvm_cosine,1.0,0.25
deep_residual,0.5071428571428571,0.5625
cgbs,0.7857142857142857,0.0
xgb_surv,0.8785714285714286,0.0
fksvm_linear,1.0,0.3125
fksvm_poly,1.0,0.36363636363636365
coxnet,1.0,0.0
deep_surv,0.5733333333333334,1.0
deep_surv_ori,0.5,0.0
fksvm_rbf,1.0,0.45454545454545453
fsvm,0.9933333333333333,0.0
stacking_a,1.0,1.0
gbs,1.0,1.0
fksvm_cosine,0.9733333333333334,0.2727272727272727
deep_residual,0.6333333333333333,0.18181818181818182
cgbs,0.7433333333333333,0.9090909090909091
xgb_surv,0.82,0.9090909090909091
fksvm_linear,0.9933333333333333,0.0
fksvm_poly,1.0,0.5625
coxnet,1.0,0.4375
deep_surv,0.31851851851851853,0.5625
deep_surv_ori,0.42962962962962964,0.375
fksvm_rbf,1.0,0.5
fsvm,1.0,0.4375
stacking_a,1.0,0.4375
gbs,1.0,0.75
fksvm_cosine,1.0,0.4375
deep_residual,0.6074074074074074,0.5625
cgbs,0.8,0.3125
xgb_surv,0.8518518518518519,0.5
fksvm_linear,1.0,0.4375
fksvm_poly,1.0,0.4
coxnet,1.0,0.68
deep_surv,0.24752475247524752,0.24
deep_surv_ori,0.46534653465346537,0.32
fksvm_rbf,1.0,0.36
fsvm,1.0,0.6
stacking_a,1.0,0.4
gbs,1.0,0.66
fksvm_cosine,1.0,0.52
deep_residual,0.42574257425742573,0.72
cgbs,0.7277227722772277,0.28
xgb_surv,0.7722772277227723,0.76
fksvm_linear,1.0,0.6
fksvm_poly,1.0,0.0
coxnet,1.0,0.1
deep_surv,0.610062893081761,0.6
deep_surv_ori,0.2138364779874214,0.8
fksvm_rbf,1.0,0.0
fsvm,0.9811320754716981,0.2
stacking_a,1.0,0.0
gbs,1.0,0.1
fksvm_cosine,0.9748427672955975,0.1
deep_residual,0.3081761006289308,0.5
cgbs,0.7735849056603774,0.1
xgb_surv,0.7515723270440252,0.2
fksvm_linear,0.9811320754716981,0.2
fksvm_poly,1.0,0.5
coxnet,1.0,0.5625
deep_surv,0.7769784172661871,0.5625
deep_surv_ori,0.4748201438848921,0.4375
fksvm_rbf,1.0,0.375
fsvm,1.0,0.5
stacking_a,1.0,0.40625
gbs,1.0,0.59375
fksvm_cosine,1.0,0.5
deep_residual,0.60431654676259,0.5625
cgbs,0.8201438848920863,0.625
xgb_surv,0.7482014388489209,0.8125
fksvm_linear,1.0,0.5
fksvm_poly,1.0,0.0
coxnet,1.0,0.0
deep_surv,0.6065573770491803,1.0
deep_surv_ori,0.3333333333333333,0.0
fksvm_rbf,1.0,0.0
fsvm,1.0,0.0
stacking_a,1.0,0.0
gbs,0.994535519125683,0.0
fksvm_cosine,0.9890710382513661,0.0
deep_residual,0.40437158469945356,1.0
cgbs,0.7868852459016393,1.0
xgb_surv,0.8306010928961749,0.0
fksvm_linear,1.0,0.0
fksvm_poly,1.0,0.3181818181818182
coxnet,1.0,0.45454545454545453
deep_surv,0.27450980392156865,0.5454545454545454
deep_surv_ori,0.7450980392156863,0.5454545454545454
fksvm_rbf,1.0,0.36363636363636365
fsvm,0.9901960784313726,0.3181818181818182
stacking_a,1.0,0.36363636363636365
gbs,1.0,0.4772727272727273
fksvm_cosine,0.9509803921568627,0.36363636363636365
deep_residual,0.8725490196078431,0.5454545454545454
cgbs,0.8431372549019608,0.3181818181818182
xgb_surv,0.9068627450980392,0.5454545454545454
fksvm_linear,0.9901960784313726,0.3181818181818182
fksvm_poly,1.0,0.5294117647058824
coxnet,1.0,0.7058823529411765
deep_surv,0.5357142857142857,0.35294117647058826
deep_surv_ori,0.6,0.4117647058823529
fksvm_rbf,1.0,0.47058823529411764
fsvm,1.0,0.7058823529411765
stacking_a,1.0,0.6176470588235294
gbs,1.0,0.47058823529411764
fksvm_cosine,1.0,0.7058823529411765
deep_residual,0.3,0.35294117647058826
cgbs,0.75,0.47058823529411764
xgb_surv,0.675,0.29411764705882354
fksvm_linear,1.0,0.7058823529411765
fksvm_poly,1.0,0.36363636363636365
coxnet,1.0,0.36363636363636365
deep_surv,0.31446540880503143,0.6363636363636364
deep_surv_ori,0.4591194968553459,0.18181818181818182
fksvm_rbf,1.0,0.18181818181818182
fsvm,0.9685534591194969,0.6363636363636364
stacking_a,1.0,0.2727272727272727
gbs,1.0,0.6363636363636364
fksvm_cosine,0.9433962264150944,0.36363636363636365
deep_residual,0.3333333333333333,0.2727272727272727
cgbs,0.7358490566037735,0.7272727272727273
xgb_surv,0.7767295597484277,0.7272727272727273
fksvm_linear,0.9685534591194969,0.6363636363636364
fksvm_poly,1.0,0.2222222222222222
coxnet,1.0,0.5555555555555556
deep_surv,0.44654088050314467,0.3333333333333333
deep_surv_ori,0.6415094339622641,0.4444444444444444
fksvm_rbf,1.0,0.2222222222222222
fsvm,0.9937106918238994,0.4444444444444444
stacking_a,1.0,0.1111111111111111
gbs,1.0,0.2777777777777778
fksvm_cosine,0.9559748427672956,0.3333333333333333
deep_residual,0.5283018867924528,0.1111111111111111
cgbs,0.779874213836478,0.2222222222222222
xgb_surv,0.8364779874213837,0.6666666666666666
fksvm_linear,0.9937106918238994,0.4444444444444444
fksvm_poly,1.0,0.5
coxnet,1.0,0.35
deep_surv,0.49122807017543857,0.7
deep_surv_ori,0.6052631578947368,0.8
fksvm_rbf,1.0,0.45
fsvm,1.0,0.2
stacking_a,1.0,0.675
gbs,1.0,0.775
fksvm_cosine,0.9824561403508771,0.25
deep_residual,0.5701754385964912,0.85
cgbs,0.7368421052631579,0.55
xgb_surv,0.8070175438596491,0.7
fksvm_linear,1.0,0.2
