ModelName,C-index Train,C-index Test
fksvm_poly,0.5,0.5
coxnet,0.5,0.5
deep_surv,0.5,0.5
deep_surv_ori,0.5,0.5
fksvm_rbf,0.5,0.5
fsvm,0.5,0.5
stacking_a,0.5,0.5
gbs,0.5,0.5
fksvm_cosine,0.5,0.5
deep_residual,0.5,0.5
cgbs,0.5,0.5
xgb_surv,0.5,0.5
fksvm_linear,0.5,0.5
fksvm_poly,0.5,0.5
coxnet,0.5,0.5
deep_surv,0.5,0.5
deep_surv_ori,0.5,0.5
fksvm_rbf,0.5,0.5
fsvm,0.5,0.5
stacking_a,0.5,0.5
gbs,0.5,0.5
fksvm_cosine,0.5,0.5
deep_residual,0.5,0.5
cgbs,0.5,0.5
xgb_surv,0.5,0.5
fksvm_linear,0.5,0.5
fksvm_poly,0.5,0.5
coxnet,0.5,0.5
deep_surv,0.5,0.5
deep_surv_ori,0.5,0.5
fksvm_rbf,0.5,0.5
fsvm,0.5,0.5
stacking_a,0.5,0.5
gbs,0.5,0.5
fksvm_cosine,0.5,0.5
deep_residual,0.5,0.5
cgbs,0.5,0.5
xgb_surv,0.5,0.5
fksvm_linear,0.5,0.5
fksvm_poly,0.5,0.5
coxnet,0.5,0.5
deep_surv,0.5,0.5
deep_surv_ori,0.5,0.5
fksvm_rbf,0.5,0.5
fsvm,0.5,0.5
stacking_a,0.5,0.5
gbs,0.5,0.5
fksvm_cosine,0.5,0.5
deep_residual,0.5,0.5
cgbs,0.5,0.5
xgb_surv,0.5,0.5
fksvm_linear,0.5,0.5
fksvm_poly,0.5,0.5
coxnet,0.5,0.5
deep_surv,0.5,0.5
deep_surv_ori,0.5,0.5
fksvm_rbf,0.5,0.5
fsvm,0.5,0.5
stacking_a,0.5,0.5
gbs,0.5,0.5
fksvm_cosine,0.5,0.5
deep_residual,0.5,0.5
cgbs,0.5,0.5
xgb_surv,0.5,0.5
fksvm_linear,0.5,0.5
fksvm_poly,0.5,0.5
coxnet,0.5,0.5
deep_surv,0.5,0.5
deep_surv_ori,0.5,0.5
fksvm_rbf,0.5,0.5
fsvm,0.5,0.5
stacking_a,0.5,0.5
gbs,0.5,0.5
fksvm_cosine,0.5,0.5
deep_residual,0.5,0.5
cgbs,0.5,0.5
xgb_surv,0.5,0.5
fksvm_linear,0.5,0.5
fksvm_poly,0.5,0.5
coxnet,0.5,0.5
deep_surv,0.5,0.5
deep_surv_ori,0.5,0.5
fksvm_rbf,0.5,0.5
fsvm,0.5,0.5
stacking_a,0.5,0.5
gbs,0.5,0.5
fksvm_cosine,0.5,0.5
deep_residual,0.5,0.5
cgbs,0.5,0.5
xgb_surv,0.5,0.5
fksvm_linear,0.5,0.5
fksvm_poly,0.5,0.5
coxnet,0.5,0.5
deep_surv,0.5,0.5
deep_surv_ori,0.5,0.5
fksvm_rbf,0.5,0.5
fsvm,0.5,0.5
stacking_a,0.5,0.5
gbs,0.5,0.5
fksvm_cosine,0.5,0.5
deep_residual,0.5,0.5
cgbs,0.5,0.5
xgb_surv,0.5,0.5
fksvm_linear,0.5,0.5
fksvm_poly,0.5,0.5
coxnet,0.5,0.5
deep_surv,0.5,0.5
deep_surv_ori,0.5,0.5
fksvm_rbf,0.5,0.5
fsvm,0.5,0.5
stacking_a,0.5,0.5
gbs,0.5,0.5
fksvm_cosine,0.5,0.5
deep_residual,0.5,0.5
cgbs,0.5,0.5
xgb_surv,0.5,0.5
fksvm_linear,0.5,0.5
fksvm_poly,0.5,0.5
coxnet,0.5,0.5
deep_surv,0.5,0.5
deep_surv_ori,0.5,0.5
fksvm_rbf,0.5,0.5
fsvm,0.5,0.5
stacking_a,0.5,0.5
gbs,0.5,0.5
fksvm_cosine,0.5,0.5
deep_residual,0.5,0.5
cgbs,0.5,0.5
xgb_surv,0.5,0.5
fksvm_linear,0.5,0.5
fksvm_poly,0.5,0.5
coxnet,0.5,0.5
deep_surv,0.5,0.5
deep_surv_ori,0.5,0.5
fksvm_rbf,0.5,0.5
fsvm,0.5,0.5
stacking_a,0.5,0.5
gbs,0.5,0.5
fksvm_cosine,0.5,0.5
deep_residual,0.5,0.5
cgbs,0.5,0.5
xgb_surv,0.5,0.5
fksvm_linear,0.5,0.5
fksvm_poly,0.5,0.5
coxnet,0.5,0.5
deep_surv,0.5,0.5
deep_surv_ori,0.5,0.5
fksvm_rbf,0.5,0.5
fsvm,0.5,0.5
stacking_a,0.5,0.5
gbs,0.5,0.5
fksvm_cosine,0.5,0.5
deep_residual,0.5,0.5
cgbs,0.5,0.5
xgb_surv,0.5,0.5
fksvm_linear,0.5,0.5
fksvm_poly,0.5,0.5
coxnet,0.5,0.5
deep_surv,0.5,0.5
deep_surv_ori,0.5,0.5
fksvm_rbf,0.5,0.5
fsvm,0.5,0.5
stacking_a,0.5,0.5
gbs,0.5,0.5
fksvm_cosine,0.5,0.5
deep_residual,0.5,0.5
cgbs,0.5,0.5
xgb_surv,0.5,0.5
fksvm_linear,0.5,0.5
fksvm_poly,0.5,0.5
coxnet,0.5,0.5
deep_surv,0.5,0.5
deep_surv_ori,0.5,0.5
fksvm_rbf,0.5,0.5
fsvm,0.5,0.5
stacking_a,0.5,0.5
gbs,0.5,0.5
fksvm_cosine,0.5,0.5
deep_residual,0.5,0.5
cgbs,0.5,0.5
xgb_surv,0.5,0.5
fksvm_linear,0.5,0.5
fksvm_poly,0.5,0.5
coxnet,0.5,0.5
deep_surv,0.5,0.5
deep_surv_ori,0.5,0.5
fksvm_rbf,0.5,0.5
fsvm,0.5,0.5
stacking_a,0.5,0.5
gbs,0.5,0.5
fksvm_cosine,0.5,0.5
deep_residual,0.5,0.5
cgbs,0.5,0.5
xgb_surv,0.5,0.5
fksvm_linear,0.5,0.5
fksvm_poly,0.5,0.5
coxnet,0.5,0.5
deep_surv,0.5,0.5
deep_surv_ori,0.5,0.5
fksvm_rbf,0.5,0.5
fsvm,0.5,0.5
stacking_a,0.5,0.5
gbs,0.5,0.5
fksvm_cosine,0.5,0.5
deep_residual,0.5,0.5
cgbs,0.5,0.5
xgb_surv,0.5,0.5
fksvm_linear,0.5,0.5
fksvm_poly,0.5,0.5
coxnet,0.5,0.5
deep_surv,0.5,0.5
deep_surv_ori,0.5,0.5
fksvm_rbf,0.5,0.5
fsvm,0.5,0.5
stacking_a,0.5,0.5
gbs,0.5,0.5
fksvm_cosine,0.5,0.5
deep_residual,0.5,0.5
cgbs,0.5,0.5
xgb_surv,0.5,0.5
fksvm_linear,0.5,0.5
fksvm_poly,0.5,0.5
coxnet,0.5,0.5
deep_surv,0.5,0.5
deep_surv_ori,0.5,0.5
fksvm_rbf,0.5,0.5
fsvm,0.5,0.5
stacking_a,0.5,0.5
gbs,0.5,0.5
fksvm_cosine,0.5,0.5
deep_residual,0.5,0.5
cgbs,0.5,0.5
xgb_surv,0.5,0.5
fksvm_linear,0.5,0.5
fksvm_poly,0.5,0.5
coxnet,0.5,0.5
deep_surv,0.5,0.5
deep_surv_ori,0.5,0.5
fksvm_rbf,0.5,0.5
fsvm,0.5,0.5
stacking_a,0.5,0.5
gbs,0.5,0.5
fksvm_cosine,0.5,0.5
deep_residual,0.5,0.5
cgbs,0.5,0.5
xgb_surv,0.5,0.5
fksvm_linear,0.5,0.5
fksvm_poly,0.5,0.5
coxnet,0.5,0.5
deep_surv,0.5,0.5
deep_surv_ori,0.5,0.5
fksvm_rbf,0.5,0.5
fsvm,0.5,0.5
stacking_a,0.5,0.5
gbs,0.5,0.5
fksvm_cosine,0.5,0.5
deep_residual,0.5,0.5
cgbs,0.5,0.5
xgb_surv,0.5,0.5
fksvm_linear,0.5,0.5
