,C-index Test,C-index Test,C-index Test,C-index Test,C-index Test,C-index Test,C-index Test,C-index Test,C-index Train,C-index Train,C-index Train,C-index Train,C-index Train,C-index Train,C-index Train,C-index Train
,count,mean,std,min,25%,50%,75%,max,count,mean,std,min,25%,50%,75%,max
ModelName,,,,,,,,,,,,,,,,
cgbs,20.0,0.47856005066342255,0.09124115445662767,0.21100917431192662,0.47488545732224674,0.4852430555555556,0.4944707491582492,0.747093023255814,20.0,0.5952186364915157,0.03211040615173186,0.5218960538979788,0.5864395086345056,0.5986517354230358,0.6055371080098675,0.6489856297548605
coxnet,20.0,0.5155179084498799,0.12139056199699812,0.23853211009174313,0.49849397590361444,0.5588869463869464,0.5784213362068966,0.6990740740740741,20.0,0.672972542886476,0.030369503927299386,0.5798845043310876,0.669543432511998,0.6787239352262644,0.6887769907535648,0.7151348879743942
deep_residual,20.0,0.49194518614840554,0.10639934543582931,0.19476744186046513,0.4402464788732394,0.5104171690378587,0.5519829317269077,0.6712962962962963,20.0,0.4892671180085017,0.07544826660358572,0.37128486511202563,0.4298613026291598,0.4838780968234352,0.5599664908932571,0.6178053830227743
deep_surv,20.0,0.535591061927282,0.12829028346132687,0.328125,0.42294827586206896,0.5611668577981652,0.6034284776902887,0.7994186046511628,20.0,0.48064435688842344,0.08326092269764868,0.3743271221532091,0.40838436927491417,0.45822652826679333,0.5486859907939474,0.6494285714285715
deep_surv_ori,20.0,0.5221886197551713,0.1216338712630206,0.2916666666666667,0.4475296661860929,0.5040750915750916,0.5601562499999999,0.7994186046511628,20.0,0.4845325908919462,0.08210836159595669,0.37320675105485235,0.4220746183707099,0.46246916639764246,0.5542328620654253,0.6716963877457705
fksvm_cosine,20.0,0.4666569632815148,0.12127151401563131,0.24311926605504589,0.3713766548412218,0.4849397590361446,0.5642018779342723,0.6328125,20.0,0.665207013466816,0.038245011231881496,0.5747854515733551,0.654116820011406,0.671372205004492,0.6846347422868687,0.7288571428571429
fksvm_linear,20.0,0.48716605304009136,0.13004179580887607,0.20642201834862386,0.41250973436012806,0.5240845070422535,0.5939236111111111,0.6461538461538462,20.0,0.6654241476465246,0.04169569032689459,0.568334937439846,0.6409500155722616,0.6654950271247739,0.6901025362144695,0.7265714285714285
fksvm_poly,20.0,0.5096861835985143,0.1203706686754855,0.2018348623853211,0.467302229020979,0.5,0.583478021978022,0.7007874015748031,20.0,0.6114484675022641,0.03613878514873792,0.49164100307963043,0.6067580173882609,0.6180393884364903,0.6330425922817227,0.6481403212172443
fksvm_rbf,20.0,0.4938409294133271,0.131241985187233,0.23853211009174313,0.3782617845117845,0.518629961587708,0.6007812499999999,0.6953125,20.0,0.6869780288426746,0.03490868969685199,0.5976900866217517,0.6776803473763395,0.6919220684748635,0.7071180909489656,0.7465714285714286
fsvm,20.0,0.5130995270399973,0.12223498151882875,0.22935779816513763,0.4759242424242424,0.5447052947052946,0.5979433418693982,0.6990740740740741,20.0,0.6788871771176704,0.032394294776431215,0.5808469682386911,0.6740664806190934,0.6854434708666075,0.6932753859549439,0.734
gbs,20.0,0.5153465106253627,0.09500621363301955,0.34174311926605505,0.46398706714971777,0.5061197916666667,0.5533533230633803,0.7965116279069767,20.0,0.7095138016012709,0.02857531789769962,0.6506256015399422,0.69159449946487,0.7102207437028866,0.7246673845691278,0.7885714285714286
stacking_a,20.0,0.5695590452090109,0.10801866524648239,0.32798165137614677,0.5292857142857144,0.579781626506024,0.6239978331527627,0.8343023255813954,20.0,0.7593283260290485,0.03066803843415892,0.687199230028874,0.7476862496493268,0.7630075467687074,0.7760900140646976,0.8317142857142857
xgb_surv,20.0,0.48922599403395284,0.054529283361255086,0.2703488372093023,0.4865034965034965,0.5036824668705402,0.5118011106927711,0.523972602739726,20.0,0.5689810479553126,0.04147215223394707,0.4945006599208095,0.5631343607299393,0.578479016778179,0.587789165202454,0.6466569058077111
