,C-index Test,C-index Test,C-index Test,C-index Test,C-index Test,C-index Test,C-index Test,C-index Test,C-index Train,C-index Train,C-index Train,C-index Train,C-index Train,C-index Train,C-index Train,C-index Train
,count,mean,std,min,25%,50%,75%,max,count,mean,std,min,25%,50%,75%,max
ModelName,,,,,,,,,,,,,,,,
cgbs,20.0,0.4606296359195575,0.048795060722330814,0.37751479289940826,0.43485310488359713,0.445858081941948,0.4969562256809339,0.5525819826611383,20.0,0.6272964414553862,0.01121496736764787,0.6037345464826381,0.6204393183574695,0.6262006470566777,0.6362780241415317,0.6479109400769654
coxnet,20.0,0.4548193682862318,0.05624681476154359,0.36254295532646047,0.4186686208016821,0.4580202944377759,0.5010847456421708,0.5398832684824902,20.0,0.9950238330049679,0.0015166954576715773,0.9931366743823007,0.9936611347221812,0.9945148102230079,0.9963316520056621,0.9982905982905983
deep_residual,20.0,0.5149798457601795,0.045450403171796404,0.3938631790744467,0.48652018799887475,0.5148746127528925,0.542885949729496,0.6014805675508945,20.0,0.509414618631044,0.02999066998061754,0.4457353669952095,0.49689509329962417,0.5063538112038,0.5201593581518045,0.5899527928616258
deep_surv,20.0,0.5012849911438683,0.05723569066086103,0.3800123380629241,0.4656078077678565,0.5144781988647595,0.5472911171259607,0.5983676975945017,20.0,0.48818056345831423,0.031748853539375045,0.43140051918677874,0.467206476582259,0.4822533924557072,0.5003307496083821,0.5664726365573515
deep_surv_ori,20.0,0.5029840276299545,0.03871584510167792,0.42382218844984804,0.4814744334816084,0.5014967384721193,0.5313261025329088,0.5659533073929961,20.0,0.48249101179763487,0.024214942124599383,0.4348184160888393,0.4685683902883099,0.4785736485015005,0.4931788453276218,0.5232957669048928
fksvm_cosine,20.0,0.45875213703592166,0.05449194941051604,0.34579037800687284,0.41043467315599563,0.4682475683890578,0.48686382396754396,0.5454963235294118,20.0,0.92534402075845,0.00940797869661455,0.9076459191748302,0.9162532782221408,0.9274818037084189,0.9339456378903394,0.9365027293722444
fksvm_linear,20.0,0.5202884884387049,0.04269146901038107,0.4481132075471698,0.4792538498851077,0.5198402773541553,0.550559400937221,0.5885599598595083,20.0,0.5890938984572693,0.011061333080520453,0.5748451435474337,0.5775504758256943,0.5884833965812972,0.596286092179568,0.6108988455195162
fksvm_poly,20.0,0.48815306845088957,0.04107504967792055,0.4111857897263562,0.4703407564549416,0.4805003407967989,0.5259806671660213,0.5477867203219315,20.0,0.9930973509919122,0.0021094546650892265,0.9871459264564245,0.9923840711703619,0.9935571126899166,0.9944925282098941,0.9954484640205672
fksvm_rbf,20.0,0.4941774554446255,0.047091071498685945,0.4164666346615458,0.4635203975429845,0.4831770457582818,0.5430026582697722,0.5735963581183612,20.0,0.995122181957124,0.001025284769141733,0.9928259205294743,0.9945121969304865,0.9950661734575044,0.9958291607104248,0.9971768971768972
fsvm,20.0,0.45749665908155707,0.05382310321465459,0.3642611683848797,0.4125636957841725,0.44366630416782005,0.5034452129664531,0.5426070038910505,20.0,0.9967284007067685,0.0008972280097862727,0.9954189613019534,0.9960479066235528,0.9966312901781518,0.9971941632989428,0.998963998963999
gbs,20.0,0.4644722745032004,0.036970724871071114,0.4070017182130584,0.4384782606896186,0.45568698496670135,0.48892693604482973,0.5618415918845103,20.0,0.8278933249066714,0.014458236622846274,0.7946561312703045,0.8221350212416354,0.8268746838438423,0.8344683806560345,0.8530821030821031
stacking_a,20.0,0.4846904700356672,0.04684352000400244,0.414066250600096,0.45777841936560787,0.47493178022382665,0.5217897252142771,0.573343449671219,20.0,0.9943552204824506,0.0010208653837879874,0.9925176293265866,0.993864174302953,0.9942577826460535,0.9950708201968331,0.9966200466200467
xgb_surv,20.0,0.4669819217240597,0.04719947244165631,0.3868209255533199,0.4311766146775409,0.47094122983827824,0.492732481827344,0.5416173570019723,20.0,0.7682946797490712,0.016753569088674748,0.735532184351082,0.7573911037802146,0.7645928944498046,0.7864762182220143,0.7953460926676587
