,C-index Test,C-index Test,C-index Test,C-index Test,C-index Test,C-index Test,C-index Test,C-index Test,C-index Train,C-index Train,C-index Train,C-index Train,C-index Train,C-index Train,C-index Train,C-index Train
,count,mean,std,min,25%,50%,75%,max,count,mean,std,min,25%,50%,75%,max
ModelName,,,,,,,,,,,,,,,,
cgbs,20.0,0.7187739837817718,0.0451629036213416,0.6243301178992497,0.6966479881894163,0.723482235886298,0.7533671681798177,0.7852760736196319,20.0,0.7428014674570385,0.014064647235576653,0.7146967430084015,0.7349008648877606,0.7453034553353308,0.7521276333530866,0.7646930409682975
coxnet,20.0,0.7072893369567821,0.044344315571324434,0.5975295934122491,0.6884804392262505,0.7058178628065458,0.7256620018294352,0.7947957839262187,20.0,0.8195786204166454,0.00873323842198058,0.8088560613508996,0.8128603675428052,0.8193282667390123,0.824153919111835,0.8430514796632018
deep_residual,20.0,0.4853581155128762,0.12216796810338824,0.2582216808769793,0.39264294058238913,0.46866515738981845,0.5805040996232608,0.6674618320610687,20.0,0.49123331988539765,0.10011034283446489,0.35670879333720706,0.3806828775516173,0.5358236747219043,0.5605490705711093,0.6791228984394284
deep_surv,20.0,0.4914732144876838,0.07655271007512288,0.3327993592310773,0.4756045646252376,0.500471546366199,0.531375921633758,0.655421686746988,20.0,0.49959808536048866,0.06526834338663814,0.38743732179726675,0.4536551923948745,0.49546064225260045,0.5565352285834291,0.5987849451743554
deep_surv_ori,20.0,0.47357856304173984,0.10092808304183708,0.33220768256648375,0.4101349697319469,0.4824748081285485,0.5225827898159556,0.674074074074074,20.0,0.487777475809973,0.044119513970955856,0.37945948473371677,0.4662273011122959,0.4875873553665683,0.5209384352508901,0.5653215449965425
fksvm_cosine,20.0,0.697620544672526,0.04356374077662494,0.5903242408646423,0.686641837571498,0.6929209784387287,0.7100255677241516,0.782608695652174,20.0,0.8321672640539901,0.009728879980309876,0.818346543218536,0.8240017553917174,0.8319252639274195,0.8369541262515156,0.8590000274265653
fksvm_linear,20.0,0.7013736833590942,0.048530408328755346,0.6073074391046741,0.6942952237389828,0.6991411716898778,0.719336225406068,0.8013833992094862,20.0,0.8367448283518109,0.009815522853021412,0.8240045825442472,0.8284137243120224,0.835639300524158,0.8420977261228659,0.8635528372781877
fksvm_poly,20.0,0.672242668488386,0.0641392863495678,0.5625,0.6360602090656455,0.6721375440109021,0.7001503790375742,0.8322182192485846,20.0,0.7133600132824561,0.040429608319055295,0.6715935502614759,0.6874108424203232,0.7057973072551055,0.7252370415975488,0.8589731611034547
fksvm_rbf,20.0,0.5966886799096284,0.0432743696928661,0.526924611088951,0.5649443382367247,0.5854178426071714,0.6353993255291892,0.6840525328330206,20.0,0.9503605452568251,0.00408413611030345,0.9432621537865582,0.9476417330851894,0.9508952051562639,0.9520559926681121,0.9592715504237405
fsvm,20.0,0.7003961174558364,0.04773322915812344,0.6099407504937459,0.6928972113412413,0.7010369362021075,0.7160260585668259,0.799901185770751,20.0,0.8371852211494544,0.009703476039606748,0.823864300577494,0.8295527476212335,0.8373080627004423,0.841948669049417,0.8633059981898467
gbs,20.0,0.7164586524884669,0.03641412480574373,0.6589882565492322,0.6820426207793651,0.7228007186092734,0.739974261159481,0.7889861039629439,20.0,0.8158104431474593,0.011131256779896095,0.7949136002284952,0.8091634309143557,0.8134543519535309,0.8218705454697367,0.8418309991100286
stacking_a,20.0,0.6397971534056144,0.03992991823835144,0.5761065943992774,0.6101640538445257,0.6265786117442744,0.6749411963629652,0.7045454545454546,20.0,0.9577103666343755,0.0033834178961593816,0.9511971864913041,0.9559408458923696,0.956968091741917,0.9596126265228196,0.9644650350498459
xgb_surv,20.0,0.6024424317980446,0.05093603955308762,0.5113636363636364,0.5714162297797093,0.5969189147643378,0.6464021034762785,0.6868767451136817,20.0,0.7748446781435676,0.01959517291177853,0.7409315942304946,0.7577132308293907,0.7781135517405201,0.7883928456727828,0.8073532770038822
