ModelName,C-index Train,C-index Test
coxnet,0.7430383437818924,0.6717267552182163
cgbs,0.6718909462020702,0.7201138519924098
gbs,0.8421052631578947,0.7258064516129032
fksvm_linear,0.7724887009768188,0.6166982922201139
fksvm_poly,0.9210526315789473,0.5654648956356736
fksvm_rbf,0.9214900131214463,0.6110056925996205
fksvm_cosine,0.7800699810467998,0.5787476280834914
fsvm,0.772780288671818,0.6166982922201139
xgb_surv,0.7345823006269135,0.6603415559772297
deep_surv,0.5220148709724449,0.6546489563567363
deep_surv_ori,0.429581571657676,0.4781783681214421
deep_residual,0.5144335909024639,0.5180265654648957
stacking_a,0.9626767750400933,0.594876660341556
coxnet,0.7514762326542663,0.6198501872659176
cgbs,0.7078535577206968,0.6264044943820225
gbs,0.8476527900797166,0.599250936329588
fksvm_linear,0.79140832595217,0.6254681647940075
fksvm_poly,0.9034543844109831,0.5543071161048689
fksvm_rbf,0.926335990552111,0.5898876404494382
fksvm_cosine,0.7858724534986714,0.6460674157303371
fsvm,0.7914821375848834,0.6254681647940075
xgb_surv,0.7323590197815175,0.653558052434457
deep_surv,0.49608798346619426,0.42134831460674155
deep_surv_ori,0.5297460879834662,0.4419475655430712
deep_residual,0.4687776793622675,0.599250936329588
stacking_a,0.9561558901682905,0.5833333333333334
coxnet,0.7618921775898521,0.6782608695652174
cgbs,0.6991279069767442,0.7304347826086957
gbs,0.8560385835095138,0.6594202898550725
fksvm_linear,0.7806553911205074,0.6666666666666666
fksvm_poly,0.9307610993657506,0.7565217391304347
fksvm_rbf,0.9382928118393234,0.7536231884057971
fksvm_cosine,0.7760306553911205,0.663768115942029
fsvm,0.7803911205073996,0.6666666666666666
xgb_surv,0.754492600422833,0.5898550724637681
deep_surv,0.43829281183932345,0.5739130434782609
deep_surv_ori,0.5290697674418605,0.5797101449275363
deep_residual,0.5284090909090909,0.5014492753623189
stacking_a,0.9664376321353065,0.7884057971014493
coxnet,0.7335396365551752,0.7578347578347578
cgbs,0.6808006320779563,0.8390313390313391
gbs,0.841453779299447,0.8219373219373219
fksvm_linear,0.7468396102185936,0.8176638176638177
fksvm_poly,0.9035422702133263,0.7321937321937322
fksvm_rbf,0.9326441927837766,0.7407407407407407
fksvm_cosine,0.7507900974453516,0.7863247863247863
fsvm,0.746049512773242,0.8148148148148148
xgb_surv,0.7450618909665525,0.5954415954415955
deep_surv,0.5470766394521991,0.4188034188034188
deep_surv_ori,0.5032262312351857,0.42165242165242167
deep_residual,0.4541085067158283,0.3561253561253561
stacking_a,0.9648406636818541,0.7592592592592593
coxnet,0.7801919488136497,0.5242165242165242
cgbs,0.71574246867502,0.5740740740740741
gbs,0.8737003465742469,0.5683760683760684
fksvm_linear,0.807384697414023,0.5584045584045584
fksvm_poly,0.9262863236470275,0.5527065527065527
fksvm_rbf,0.9368168488403092,0.6210826210826211
fksvm_cosine,0.8020527859237536,0.5242165242165242
fsvm,0.807384697414023,0.5612535612535613
xgb_surv,0.7641295654492135,0.41595441595441596
deep_surv,0.4788056518261797,0.5811965811965812
deep_surv_ori,0.44708077845907757,0.43874643874643876
deep_residual,0.4146894161556918,0.3789173789173789
stacking_a,0.9661423620367902,0.5470085470085471
coxnet,0.7899761336515513,0.40589569160997735
cgbs,0.7159904534606205,0.5748299319727891
gbs,0.8544152744630071,0.655328798185941
fksvm_linear,0.8033132107258177,0.42857142857142855
fksvm_poly,0.8629790818475361,0.4376417233560091
fksvm_rbf,0.9321914923487294,0.4965986394557823
fksvm_cosine,0.7941878422013197,0.42630385487528344
fsvm,0.8033132107258177,0.42857142857142855
xgb_surv,0.7346623613645936,0.7188208616780045
deep_surv,0.5560859188544153,0.4376417233560091
deep_surv_ori,0.504562684262249,0.5215419501133787
deep_residual,0.4660957461743647,0.40816326530612246
stacking_a,0.9695353081566755,0.546485260770975
coxnet,0.7896437805228382,0.5720164609053497
cgbs,0.7439672507900029,0.5987654320987654
gbs,0.8641195058891123,0.5792181069958847
fksvm_linear,0.8126975007181845,0.5432098765432098
fksvm_poly,0.926457914392416,0.5082304526748971
fksvm_rbf,0.9375897730537202,0.51440329218107
fksvm_cosine,0.803792013789141,0.51440329218107
fsvm,0.812482045389256,0.551440329218107
xgb_surv,0.7608445848893995,0.6450617283950617
deep_surv,0.44750071818442977,0.47530864197530864
deep_surv_ori,0.4900172364263143,0.7139917695473251
deep_residual,0.5078282102844011,0.4609053497942387
stacking_a,0.9653116920425165,0.4434156378600823
coxnet,0.7662214942673554,0.5673469387755102
cgbs,0.7145017008945446,0.5387755102040817
gbs,0.8501952878921507,0.5857142857142857
fksvm_linear,0.784112385032128,0.5836734693877551
fksvm_poly,0.9096006047625047,0.6285714285714286
fksvm_rbf,0.9311452689933224,0.6326530612244898
fksvm_cosine,0.7846163537860653,0.563265306122449
fsvm,0.7844903615975809,0.5918367346938775
xgb_surv,0.7318256268111377,0.6489795918367347
deep_surv,0.44166561673176263,0.42857142857142855
deep_surv_ori,0.571437570870606,0.5306122448979592
deep_residual,0.5816429381378354,0.46530612244897956
stacking_a,0.9557137457477637,0.5306122448979592
coxnet,0.764971675209064,0.4732620320855615
cgbs,0.713514971675209,0.6871657754010695
gbs,0.8594550849743728,0.7005347593582888
fksvm_linear,0.7813595899649312,0.6283422459893048
fksvm_poly,0.9291880226598328,0.5481283422459893
fksvm_rbf,0.93026706231454,0.6042780748663101
fksvm_cosine,0.767601834367413,0.6443850267379679
fsvm,0.7818316698138656,0.6283422459893048
xgb_surv,0.7340841650930672,0.7887700534759359
deep_surv,0.5966414890747235,0.47058823529411764
deep_surv_ori,0.5791070946857297,0.7219251336898396
deep_residual,0.5541543026706232,0.6096256684491979
stacking_a,0.9604127326679256,0.6176470588235294
coxnet,0.7737358490566038,0.5314685314685315
cgbs,0.7181886792452831,0.6223776223776224
gbs,0.8572075471698113,0.5865384615384616
fksvm_linear,0.7959245283018868,0.5594405594405595
fksvm_poly,0.8873962264150943,0.5472027972027972
fksvm_rbf,0.9272452830188679,0.5332167832167832
fksvm_cosine,0.789433962264151,0.5786713286713286
fsvm,0.7969811320754717,0.5576923076923077
xgb_surv,0.7600754716981132,0.6381118881118881
deep_surv,0.472,0.43006993006993005
deep_surv_ori,0.45932075471698114,0.6066433566433567
deep_residual,0.5284528301886793,0.47202797202797203
stacking_a,0.9661132075471698,0.5690559440559441
coxnet,0.7622170967276921,0.5849802371541502
cgbs,0.7111863918120225,0.6472332015810277
gbs,0.8613233386189996,0.591897233201581
fksvm_linear,0.7864350583825861,0.5395256916996047
fksvm_poly,0.8837393686031426,0.549407114624506
fksvm_rbf,0.93102205564365,0.5296442687747036
fksvm_cosine,0.7903272307914084,0.549407114624506
fsvm,0.7865792129162462,0.5533596837944664
xgb_surv,0.7301427129883235,0.49407114624505927
deep_surv,0.45646533083465474,0.5395256916996047
deep_surv_ori,0.5638604584114171,0.49407114624505927
deep_residual,0.5285425976646966,0.5454545454545454
stacking_a,0.963745134784489,0.5148221343873518
coxnet,0.7648744964363186,0.6719242902208202
cgbs,0.7022776572668112,0.6648264984227129
gbs,0.8750387356678029,0.6782334384858044
fksvm_linear,0.7812209482491478,0.6498422712933754
fksvm_poly,0.9133870467926867,0.6750788643533123
fksvm_rbf,0.9281066005577936,0.6451104100946372
fksvm_cosine,0.7822280756120236,0.6356466876971609
fsvm,0.7816083049271769,0.6482649842271293
xgb_surv,0.7483731019522777,0.583596214511041
deep_surv,0.5065850635264952,0.37381703470031546
deep_surv_ori,0.5477998140687945,0.5141955835962145
deep_residual,0.5271924387976449,0.4794952681388013
stacking_a,0.970173535791757,0.7160883280757098
coxnet,0.7485652797704447,0.691358024691358
cgbs,0.7012912482065997,0.691358024691358
gbs,0.8463414634146341,0.727366255144033
fksvm_linear,0.7637733142037303,0.7037037037037037
fksvm_poly,0.9274748923959828,0.6131687242798354
fksvm_rbf,0.9330703012912482,0.6995884773662552
fksvm_cosine,0.7607604017216643,0.6995884773662552
fsvm,0.7640602582496413,0.7037037037037037
xgb_surv,0.7463414634146341,0.676954732510288
deep_surv,0.4171449067431851,0.5
deep_surv_ori,0.4456958393113343,0.45267489711934156
deep_residual,0.43579626972740315,0.5102880658436214
stacking_a,0.9546628407460546,0.7489711934156379
coxnet,0.7466865904365905,0.726962457337884
cgbs,0.7116034303534303,0.7047781569965871
gbs,0.8701273388773388,0.5460750853242321
fksvm_linear,0.7681262993762994,0.7098976109215017
fksvm_poly,0.9297687110187111,0.6109215017064846
fksvm_rbf,0.9389942827442828,0.5938566552901023
fksvm_cosine,0.7711148648648649,0.6450511945392492
fsvm,0.7683861746361746,0.7030716723549488
xgb_surv,0.7501949064449065,0.6109215017064846
deep_surv,0.5845244282744283,0.5802047781569966
deep_surv_ori,0.5215046777546778,0.47440273037542663
deep_residual,0.5420348232848233,0.4232081911262799
stacking_a,0.9721283783783784,0.6194539249146758
coxnet,0.7632906215921483,0.6397984886649875
cgbs,0.7041303162486369,0.5793450881612091
gbs,0.8429661941112323,0.5629722921914357
fksvm_linear,0.7838740458015268,0.6020151133501259
fksvm_poly,0.9309569247546347,0.5919395465994962
fksvm_rbf,0.9373636859323882,0.5894206549118388
fksvm_cosine,0.7816930207197382,0.5768261964735516
fsvm,0.7841466739367503,0.6020151133501259
xgb_surv,0.7241684841875682,0.6158690176322418
deep_surv,0.47539531079607417,0.4256926952141058
deep_surv_ori,0.5829471101417666,0.5214105793450882
deep_residual,0.6457878953107961,0.5843828715365239
stacking_a,0.9682388222464559,0.6498740554156172
coxnet,0.7661860899746362,0.5346820809248555
cgbs,0.723000934454679,0.5895953757225434
gbs,0.8637698571619277,0.7398843930635838
fksvm_linear,0.7812708583633694,0.5838150289017341
fksvm_poly,0.9253103724469364,0.5867052023121387
fksvm_rbf,0.9438659725003338,0.5578034682080925
fksvm_cosine,0.7736617274062207,0.6098265895953757
fsvm,0.7811373648378054,0.5838150289017341
xgb_surv,0.723868642370845,0.6647398843930635
deep_surv,0.41843545588038983,0.6994219653179191
deep_surv_ori,0.45741556534508077,0.47398843930635837
deep_residual,0.4173675076758777,0.4421965317919075
stacking_a,0.9771058603657723,0.611271676300578
coxnet,0.7720588235294118,0.6151079136690647
cgbs,0.7234262125902993,0.6492805755395683
gbs,0.8470717234262126,0.710431654676259
fksvm_linear,0.7826367389060888,0.6798561151079137
fksvm_poly,0.919891640866873,0.7266187050359713
fksvm_rbf,0.9313725490196079,0.6726618705035972
fksvm_cosine,0.7792827657378741,0.697841726618705
fsvm,0.7834107327141383,0.6762589928057554
xgb_surv,0.7214267285861713,0.6241007194244604
deep_surv,0.5464396284829721,0.46402877697841727
deep_surv_ori,0.5497936016511867,0.5035971223021583
deep_residual,0.47226522187822495,0.2949640287769784
stacking_a,0.9633642930856553,0.7266187050359713
coxnet,0.760530871321408,0.6105577689243028
cgbs,0.7093190998268898,0.6175298804780877
gbs,0.8698066935949221,0.6812749003984063
fksvm_linear,0.7787074437391807,0.6583665338645418
fksvm_poly,0.9068090017311021,0.5587649402390438
fksvm_rbf,0.9389786497403346,0.5727091633466136
fksvm_cosine,0.7739469128678592,0.6523904382470119
fsvm,0.7791402192729371,0.6583665338645418
xgb_surv,0.7893825735718407,0.5378486055776892
deep_surv,0.602135025966532,0.5428286852589641
deep_surv_ori,0.595931909982689,0.3854581673306773
deep_residual,0.42974610502019617,0.39143426294820716
stacking_a,0.9740334679746105,0.5826693227091634
coxnet,0.7680436117936118,0.5460992907801419
cgbs,0.7215909090909091,0.4946808510638298
gbs,0.898955773955774,0.5363475177304965
fksvm_linear,0.8126535626535627,0.5443262411347518
fksvm_poly,0.9269041769041769,0.6028368794326241
fksvm_rbf,0.9396498771498771,0.5904255319148937
fksvm_cosine,0.8071253071253072,0.5797872340425532
fsvm,0.8123464373464373,0.5726950354609929
xgb_surv,0.7538390663390664,0.5354609929078015
deep_surv,0.5089066339066339,0.48936170212765956
deep_surv_ori,0.5841523341523341,0.4237588652482269
deep_residual,0.46575552825552824,0.40425531914893614
stacking_a,0.9667536855036855,0.5700354609929078
coxnet,0.7658554044380816,0.5983263598326359
cgbs,0.7035075161059413,0.6914225941422594
gbs,0.8448818897637795,0.6621338912133892
fksvm_linear,0.7938439513242663,0.5857740585774058
fksvm_poly,0.9421617752326413,0.5627615062761506
fksvm_rbf,0.9454545454545454,0.5439330543933054
fksvm_cosine,0.7934144595561918,0.5502092050209205
fsvm,0.7936292054402291,0.5711297071129707
xgb_surv,0.742806012884753,0.6809623430962343
deep_surv,0.44946313528990695,0.47280334728033474
deep_surv_ori,0.5659985683607731,0.5292887029288703
deep_residual,0.35297065139584827,0.4811715481171548
stacking_a,0.9627773801002147,0.5868200836820083
