,C-index Test,C-index Test,C-index Test,C-index Test,C-index Test,C-index Test,C-index Test,C-index Test,C-index Train,C-index Train,C-index Train,C-index Train,C-index Train,C-index Train,C-index Train,C-index Train
,count,mean,std,min,25%,50%,75%,max,count,mean,std,min,25%,50%,75%,max
ModelName,,,,,,,,,,,,,,,,
cgbs,20.0,0.5193053896586505,0.18983780923741056,0.14285714285714285,0.3888888888888889,0.5375,0.6684782608695652,0.8125,20.0,0.749268560842202,0.03968681111481003,0.6875,0.7146180742334589,0.7533783783783784,0.7785223929388689,0.8133802816901409
coxnet,20.0,0.49815867707172057,0.22929128302913837,0.0,0.3822115384615385,0.5,0.5625,1.0,20.0,0.794880605960204,0.03318299171977191,0.7350993377483444,0.7714783281733747,0.7993069993069992,0.8174306575650221,0.8463855421686747
deep_residual,20.0,0.5529546238785368,0.2811620986284627,0.05555555555555555,0.3645833333333333,0.6041666666666667,0.7291666666666666,1.0,20.0,0.45531329345255467,0.13556498918262788,0.24812030075187969,0.3616336633663366,0.4379680885704982,0.5182602993033457,0.7159763313609467
deep_surv,20.0,0.5704594017094017,0.31225517051962254,0.125,0.3333333333333333,0.5166666666666666,0.8854166666666666,1.0,20.0,0.48811823470593235,0.11775896888897029,0.27631578947368424,0.40014662756598235,0.4644970414201184,0.6069438069634778,0.6717791411042945
deep_surv_ori,20.0,0.5150207702925094,0.18694135789434474,0.2,0.3333333333333333,0.5166666666666666,0.6666666666666666,0.875,20.0,0.4512409312900064,0.11981930273593108,0.24342105263157895,0.3484723058398555,0.46035681186283595,0.5585188620902906,0.639751552795031
fksvm_cosine,20.0,0.5169668737060042,0.17991704809165826,0.16666666666666666,0.44337606837606836,0.5,0.5555555555555556,1.0,20.0,0.7885162387550293,0.04138959931658749,0.7121212121212122,0.7643382352941177,0.7826384142173616,0.8259357377455537,0.8525179856115108
fksvm_linear,20.0,0.5059908026755854,0.22062141000460947,0.0,0.38782051282051283,0.5,0.5555555555555556,1.0,20.0,0.8027547490911452,0.03664912131997867,0.7417218543046358,0.7752515479876161,0.8122294372294372,0.8338509316770186,0.858433734939759
fksvm_poly,20.0,0.5881258958432871,0.1822349981940857,0.3076923076923077,0.4861111111111111,0.5277777777777778,0.6833333333333333,1.0,20.0,0.8955431832101306,0.03647771201030876,0.8175675675675675,0.8777231777231778,0.9048936570675701,0.9172067438534988,0.9696969696969697
fksvm_rbf,20.0,0.540989077347773,0.17929413655400095,0.25,0.4375,0.5,0.6394927536231884,1.0,20.0,0.8962700191919382,0.03174978857568078,0.8378378378378378,0.8806115860033209,0.897321072368946,0.9175617615467239,0.9696969696969697
fsvm,20.0,0.5042999814195466,0.22266332741884678,0.0,0.3822115384615385,0.5,0.5555555555555556,1.0,20.0,0.8027375229881656,0.03686778816619171,0.7417218543046358,0.774375652627915,0.8122294372294372,0.8353960396039604,0.858433734939759
gbs,20.0,0.4229266536603493,0.23996135339130303,0.0,0.296875,0.3923611111111111,0.5416666666666667,1.0,20.0,0.980857670706768,0.011689300895680125,0.9576923076923077,0.9722402597402597,0.9798918629071898,0.9902490553772396,1.0
stacking_a,20.0,0.43191524658915964,0.2372994680021081,0.0625,0.23036858974358973,0.4444444444444444,0.5521739130434783,1.0,20.0,0.9893028969069617,0.008027741382654528,0.9769230769230769,0.9833868055021902,0.9864405221548078,0.9969742606790799,1.0
xgb_surv,20.0,0.5099085576259489,0.23307256433488616,0.125,0.328125,0.5277777777777778,0.6887019230769231,0.8888888888888888,20.0,0.708996333935612,0.12161029637306421,0.5045045045045045,0.6206730769230769,0.699025974025974,0.8348578805667123,0.9156626506024096
