,C-index Test,C-index Test,C-index Test,C-index Test,C-index Test,C-index Test,C-index Test,C-index Test,C-index Train,C-index Train,C-index Train,C-index Train,C-index Train,C-index Train,C-index Train,C-index Train
,count,mean,std,min,25%,50%,75%,max,count,mean,std,min,25%,50%,75%,max
ModelName,,,,,,,,,,,,,,,,
cgbs,20.0,0.6392532025338448,0.1042475701712463,0.3370165745856354,0.5980863499245852,0.6539088804713805,0.6832081076358553,0.8935643564356436,20.0,0.6897880724708589,0.018433985866550293,0.6377114616992967,0.6838944606907861,0.6894146995697764,0.6961477454898507,0.7266333938294011
coxnet,20.0,0.6118028888744638,0.11151058773099648,0.32044198895027626,0.5366161616161617,0.6292767615176151,0.6714071083391846,0.7970297029702971,20.0,0.7577705153108615,0.02402121702462532,0.7042387378825319,0.7488694312757815,0.7657819701891504,0.7702751313047285,0.7961660617059891
deep_residual,20.0,0.5029259665132463,0.08806889313041913,0.2991202346041056,0.47057308736773107,0.49667346542346547,0.5697007200720072,0.6790123456790124,20.0,0.5004511432114436,0.0557816484091906,0.39825317604355714,0.46023228246193587,0.4959951452021186,0.5298017212543249,0.599534224382341
deep_surv,20.0,0.4904933533409662,0.07743545757408314,0.35185185185185186,0.4434268725393302,0.47254220614369125,0.5446520287621982,0.6284722222222222,20.0,0.508919765457425,0.04768303016878027,0.42193195625759417,0.4709466324775124,0.5136255185243261,0.5462753270815939,0.5850598745485649
deep_surv_ori,20.0,0.5096555120586658,0.10605258072722466,0.3472222222222222,0.414308834198337,0.5029556392550742,0.5847072217056482,0.6936936936936937,20.0,0.4953488793322083,0.06629634994480252,0.37990245884982726,0.45149514037098937,0.495006136649182,0.5539306449955055,0.6107920792079208
fksvm_cosine,20.0,0.6002720410413573,0.1022070227375024,0.40331491712707185,0.5321180555555556,0.60187575030012,0.6513373168302745,0.8613861386138614,20.0,0.7826798320465378,0.01946058330065964,0.7274282455806881,0.7753908230375509,0.782609298349451,0.7950834842728853,0.8163566243194192
fksvm_linear,20.0,0.6001116921824172,0.10041397223751669,0.36464088397790057,0.547676282051282,0.5868714242697983,0.6503414425949637,0.7920792079207921,20.0,0.7850565066276886,0.020734239378648156,0.7363619083824368,0.7779100291391354,0.7889910818594394,0.797253489953061,0.819078947368421
fksvm_poly,20.0,0.542440961151194,0.09360019744159076,0.3259668508287293,0.4769721776963591,0.5344279661016949,0.6199494949494949,0.6735395189003437,20.0,0.9059033940411613,0.02170744007352223,0.8518811881188119,0.9023590272058724,0.9095451872554159,0.9213065064660972,0.9355095541401274
fksvm_rbf,20.0,0.5674883336089013,0.10189043431124573,0.3867403314917127,0.4942755867014342,0.5655489301138594,0.6517896036009874,0.7428571428571429,20.0,0.9259327216211917,0.010817529375521778,0.9043908002280935,0.918882748627423,0.9257328757328758,0.9326070198718631,0.9440559440559441
fsvm,20.0,0.6021797647165841,0.09978215584577907,0.36464088397790057,0.547676282051282,0.5946288151406105,0.6527810933396992,0.7772277227722773,20.0,0.7850844651772653,0.02069361619054371,0.7359817525185326,0.7780120491350546,0.7891977788416635,0.7972223786303083,0.8183983666061706
gbs,20.0,0.6007916302090064,0.10810800955661583,0.4088397790055249,0.5366652389620588,0.6068790793541738,0.6450052785597866,0.8613861386138614,20.0,0.8507601010855679,0.013153456643556168,0.8197047132311187,0.8431240163422907,0.8506920152529533,0.8601471845631048,0.8698668666791675
stacking_a,20.0,0.5617215034182058,0.1047949832980283,0.3784530386740331,0.49726714808625766,0.539240486190658,0.6110967274233636,0.7657657657657657,20.0,0.9712464191741026,0.005168840036217467,0.9618893746436039,0.968197136143913,0.9725231566648906,0.9749176516815118,0.9778190559440559
xgb_surv,20.0,0.5291868798733821,0.10017847561911188,0.3333333333333333,0.45699685688069813,0.5272890192245031,0.5914471172203131,0.7376237623762376,20.0,0.7733071634852228,0.026553070903043766,0.6983173076923077,0.7650203264999708,0.77170001996846,0.7894264435829421,0.8153947121695106
