,C-index Test,C-index Test,C-index Test,C-index Test,C-index Test,C-index Test,C-index Test,C-index Test,C-index Train,C-index Train,C-index Train,C-index Train,C-index Train,C-index Train,C-index Train,C-index Train
,count,mean,std,min,25%,50%,75%,max,count,mean,std,min,25%,50%,75%,max
ModelName,,,,,,,,,,,,,,,,
cgbs,20.0,0.6344261886574324,0.036005362046540826,0.5596175478065242,0.6130059516484959,0.6327961901381602,0.6572229665934245,0.6980297547245677,20.0,0.6991189479866018,0.008879803364184676,0.6827896268624299,0.6929331057154808,0.6966255170047764,0.7073935531595474,0.714588432599039
coxnet,20.0,0.6384817877934668,0.03687688574595229,0.5714767363452461,0.6085617635925058,0.636413381235868,0.6550150969704036,0.7117667597765364,20.0,0.7155423058152107,0.009019375816747005,0.6966682594153164,0.7099033555995105,0.7151650952607189,0.721132207970796,0.7305923473142016
deep_residual,20.0,0.5107520749092259,0.06675967504463161,0.4082267542343588,0.47675179973710297,0.5028940494875658,0.5527346829375965,0.6727188081936686,20.0,0.49615074538563003,0.04472773967910238,0.38363604762318587,0.46429919987194734,0.5110159832581495,0.5328178392746636,0.5486961741102194
deep_surv,20.0,0.5040989081142054,0.06853712158417352,0.3581812035158891,0.4565297319649273,0.5034429509640264,0.5429807844576892,0.6290153631284916,20.0,0.4985863200167201,0.0391146641431723,0.44505998588567397,0.46497496047902415,0.4970599563483717,0.5213045875557306,0.5831798064502467
deep_surv_ori,20.0,0.49293371687888243,0.05195510611821763,0.40136173184357543,0.4645053679100534,0.4880362125311968,0.5322274550649625,0.5885785744060025,20.0,0.5064705290808715,0.04358997861452026,0.40713180008845645,0.4823251675382219,0.5068132231597283,0.5271985493889597,0.573288637967537
fksvm_cosine,20.0,0.6500803339202155,0.040064802107576444,0.5802427511800404,0.6198899205362225,0.6455687228266256,0.6904276550005477,0.7057728119180633,20.0,0.7270774965033884,0.008712345247586519,0.7145670541896957,0.7215418771743285,0.7264657095577618,0.7324726418728931,0.7432689692684253
fksvm_linear,20.0,0.6473639147589789,0.03202563273014686,0.5920431557653405,0.6235280453292198,0.6448965947218599,0.6786297746486898,0.696054469273743,20.0,0.7255212836872393,0.008165937018907424,0.7110029972633682,0.7192764769640845,0.7249788215381212,0.7322201647504075,0.739461517541474
fksvm_poly,20.0,0.5893155578904483,0.04083855947500373,0.5273095077545515,0.5595646805962313,0.5991190703370718,0.6160640921295765,0.6617647058823529,20.0,0.6878746477634111,0.11392209683958186,0.6012209959155297,0.6106708033934236,0.6226057659162623,0.831456482652052,0.8710926943518602
fksvm_rbf,20.0,0.6062097061013696,0.03185059906214297,0.560682893847194,0.5826651371354419,0.5998207278889673,0.6212425319188298,0.6678729392842783,20.0,0.9035916629604394,0.006635100813295871,0.8896257805734081,0.8996256642968985,0.9031649266632007,0.9073516950672293,0.9179907739620707
fsvm,20.0,0.6469720050550705,0.03264756067856639,0.5873229939312204,0.6218660549084387,0.6460712490948566,0.6763108842959407,0.6957053072625698,20.0,0.7255971784059245,0.008236211112299151,0.7109921376134833,0.7193017903881334,0.7251399886789911,0.7320204199740612,0.739495512646179
gbs,20.0,0.6544247952387727,0.0320841202654251,0.6081130690161527,0.624822621501373,0.6532958772898009,0.6707778283212901,0.7290874524714829,20.0,0.7854459546792183,0.005778252126272576,0.7766975838772472,0.7804268557247748,0.7855680482077665,0.789233317541686,0.7978537757229626
stacking_a,20.0,0.6093871126037015,0.03103009319235268,0.558982909545644,0.5904779807988387,0.6058590074032693,0.6325978351772585,0.6651696606786427,20.0,0.9307795134881545,0.005542389892136605,0.9211132354219171,0.9267180013066486,0.9308535973337153,0.9348820320292077,0.9407884350826549
xgb_surv,20.0,0.5786308090177289,0.06005092183730723,0.4554738562091503,0.5372244777776948,0.5868411657696335,0.6185782031082246,0.6753116204262163,20.0,0.7518573011647031,0.01904548273221487,0.7231843140742058,0.7401017356910609,0.7520492359422215,0.76289892679286,0.7999427459063323
