,C-index Test,C-index Test,C-index Test,C-index Test,C-index Test,C-index Test,C-index Test,C-index Test,C-index Train,C-index Train,C-index Train,C-index Train,C-index Train,C-index Train,C-index Train,C-index Train
,count,mean,std,min,25%,50%,75%,max,count,mean,std,min,25%,50%,75%,max
ModelName,,,,,,,,,,,,,,,,
cgbs,20.0,0.7445512936256293,0.04935823606262121,0.6479338842975206,0.7187130701314963,0.749509345702239,0.7686331831624187,0.8494780793319415,20.0,0.7615963672170254,0.010407529648167138,0.7425750857525307,0.7566161994749454,0.759737165450064,0.7678769505728075,0.7820177046775968
coxnet,20.0,0.7169159486994854,0.05184250875440139,0.6319559228650138,0.690186935635495,0.7097235519478635,0.7480695635292115,0.8223382045929019,20.0,0.7726807921130575,0.010668315462867358,0.7519869488831256,0.7669482414779749,0.7737077693931821,0.7781464452376894,0.7938557435440784
deep_residual,20.0,0.5401079693422327,0.0755552768787503,0.370393634840871,0.4861988599881274,0.5423209067339448,0.6007638652174808,0.6451306413301663,20.0,0.5407954003710359,0.06985584878672174,0.3759001306753413,0.5098312159678029,0.5286235986129534,0.5746049443354773,0.6620575939342006
deep_surv,20.0,0.4836661872664728,0.06662372319109097,0.39992447129909364,0.42232559817364335,0.4841448200156102,0.5146415356151712,0.6237529691211401,20.0,0.4933617636805624,0.08051030200804672,0.35933689466960866,0.4413134689475919,0.46564642856571387,0.5333732377107931,0.6538918277016086
deep_surv_ori,20.0,0.5155481120266853,0.07984046413383417,0.3470249520153551,0.4597712438976603,0.5151642951196915,0.5683275416461784,0.6491899189918992,20.0,0.5120450952661197,0.07079087128014565,0.40037385765715866,0.4595345452778723,0.49917008693199316,0.5617298532534436,0.6409000504645709
fksvm_cosine,20.0,0.7257975674540047,0.04708240093497302,0.6391184573002755,0.7034965460798738,0.7191690515996628,0.7548116303561552,0.8252609603340292,20.0,0.7796675636626571,0.009944213753892856,0.7580384282885747,0.7747442372002122,0.7810299368740269,0.7856683215655377,0.7988581006757111
fksvm_linear,20.0,0.7244721562137357,0.04757050767467831,0.6380165289256199,0.7022683688649565,0.7148160314946896,0.7587960256974702,0.8286012526096034,20.0,0.7787111422097623,0.0097272035654897,0.7578013887726931,0.7733464588464621,0.7790149609738148,0.7846225675343292,0.798753339269813
fksvm_poly,20.0,0.7038375722846968,0.03492237684363331,0.6288755205923183,0.6850376662284299,0.7071024390643361,0.7310705459001037,0.7594410876132931,20.0,0.8471374686629659,0.009348682035136042,0.826162307714343,0.8417970916635414,0.8469805083976057,0.854262909935224,0.8641487523720509
fksvm_rbf,20.0,0.6984692793678069,0.043350766337373066,0.5839888940305414,0.666308973172988,0.706742743557812,0.7303240080622,0.7586858006042296,20.0,0.8654835062724684,0.0071379958918669426,0.8540370116518163,0.8602358544156707,0.8647499877582481,0.8705343365024558,0.8786501260373297
fsvm,20.0,0.7204661356174823,0.04385914785919314,0.6369146005509642,0.7013984596676126,0.7129206555642216,0.7474867657766265,0.8256784968684759,20.0,0.7791351884102059,0.009696898981645746,0.7577595582698904,0.7731140374549861,0.7803125579736327,0.7845136774502655,0.7993819077052015
gbs,20.0,0.7374796230136307,0.0429033198360615,0.6543267006015734,0.7157250179332655,0.7397800073474953,0.7535801516364419,0.8167014613778706,20.0,0.8183002883148942,0.010173493638791373,0.7986558465099417,0.8113560840796232,0.8181878587760272,0.8234878296082309,0.8366900633806506
stacking_a,20.0,0.7118986798797609,0.04081633331746582,0.6221656640444239,0.683442132560134,0.7196676991197539,0.7405235515247586,0.7853852596314908,20.0,0.9119464767940112,0.005889092915195951,0.9020496281883845,0.909205958172572,0.9105236342114935,0.9176115797274236,0.9222548757681005
xgb_surv,20.0,0.6869805719980385,0.04473311461793483,0.6054097056483692,0.6530269600802172,0.6925256481528277,0.7163883886638982,0.7504264756055954,20.0,0.7712652106821005,0.016253643571000488,0.7455175166044298,0.7600384280513176,0.7742443594026429,0.7846261484300325,0.7929305803381765
