,C-index Test,C-index Test,C-index Test,C-index Test,C-index Test,C-index Test,C-index Test,C-index Test,C-index Train,C-index Train,C-index Train,C-index Train,C-index Train,C-index Train,C-index Train,C-index Train
,count,mean,std,min,25%,50%,75%,max,count,mean,std,min,25%,50%,75%,max
ModelName,,,,,,,,,,,,,,,,
cgbs,20.0,0.45476346488230296,0.188327176918465,0.19047619047619047,0.33704292527821944,0.4518995098039216,0.5,1.0,20.0,0.7623824683280227,0.07622629712117146,0.6038812785388128,0.7141610633962971,0.7865696389093588,0.8151267626524278,0.8842443729903537
coxnet,20.0,0.6837650483559218,0.22799417066771915,0.14285714285714285,0.556469298245614,0.7068181818181818,0.8115384615384617,1.0,20.0,0.8557163326750519,0.044968553522373306,0.7545787545787546,0.8216982352460579,0.8686075901850623,0.8918944608005615,0.9163987138263665
deep_residual,20.0,0.6025359905775136,0.2938374898589491,0.0,0.3333333333333333,0.5668720190779014,0.8506493506493507,1.0,20.0,0.549196301582187,0.14208530923308504,0.22886297376093295,0.4680797098145074,0.5826094065071665,0.6656903796938949,0.7625628140703518
deep_surv,20.0,0.5298036420331803,0.28031337341726337,0.0,0.31182432432432433,0.5416666666666667,0.7110745614035088,1.0,20.0,0.501481070264872,0.14648538775603276,0.15406162464985995,0.44756354576404234,0.5033915690556547,0.5745672268460376,0.7565597667638484
deep_surv_ori,20.0,0.5055345940132601,0.3016333248171219,0.0,0.3333333333333333,0.5005630630630631,0.7567307692307692,1.0,20.0,0.5104655656180388,0.1518600459634459,0.23792270531400966,0.37495215965008205,0.5448973925001322,0.6156897037165382,0.7725321888412017
fksvm_cosine,20.0,0.49386103620214944,0.256028750910871,0.14285714285714285,0.3229166666666667,0.43874275062137535,0.6001126126126126,1.0,20.0,0.8807034705681838,0.04188217398384221,0.8146718146718147,0.833370110153933,0.891242743397352,0.9098544744774424,0.944206008583691
fksvm_linear,20.0,0.5584897995968288,0.23226613866093043,0.14285714285714285,0.40406162464985995,0.5477272727272727,0.63125,1.0,20.0,0.8713373335246258,0.04699412536975393,0.7692307692307693,0.8269634476247537,0.888045387646584,0.9100716469334714,0.9260450160771704
fksvm_poly,20.0,0.4086045669866474,0.2383621737329626,0.0,0.25,0.42067108533554265,0.5261595022624435,1.0,20.0,0.9266738136396308,0.04514615181281534,0.8466494845360825,0.8848694363499369,0.9340616846417311,0.968938545748585,0.9864406779661017
fksvm_rbf,20.0,0.337791115604147,0.20522887914988303,0.0,0.2481060606060606,0.3273809523809524,0.384330985915493,1.0,20.0,0.925473843293374,0.03989548134783257,0.8573200992555832,0.8852424765920606,0.9332932923049919,0.9566616906139206,0.9796610169491525
fsvm,20.0,0.5584897995968288,0.23226613866093043,0.14285714285714285,0.40406162464985995,0.5477272727272727,0.63125,1.0,20.0,0.871276947051196,0.0469776923928172,0.7692307692307693,0.8269634476247537,0.888045387646584,0.9100716469334714,0.9260450160771704
gbs,20.0,0.4827890245401719,0.28571421069998776,0.023809523809523808,0.2578125,0.4230392156862745,0.6680506993006993,1.0,20.0,0.969932182979016,0.01760567724473333,0.937375745526839,0.9630592560010054,0.9721768737042049,0.9854745832165117,0.9915254237288136
stacking_a,20.0,0.5213228879251641,0.22707705760729407,0.0,0.4243697478991596,0.5307511737089201,0.5816441441441441,1.0,20.0,0.9898798800099202,0.006856724860023675,0.9743589743589743,0.9871244635193133,0.9907579967470859,0.9946251648312485,1.0
xgb_surv,20.0,0.4301026036871625,0.18146012384485455,0.022727272727272728,0.3235294117647059,0.5,0.5120192307692308,0.7,20.0,0.5697879830285786,0.13902131086503694,0.3526315789473684,0.5,0.5,0.7172221217751287,0.7990353697749196
