,C-index Test,C-index Test,C-index Test,C-index Test,C-index Test,C-index Test,C-index Test,C-index Test,C-index Train,C-index Train,C-index Train,C-index Train,C-index Train,C-index Train,C-index Train,C-index Train
,count,mean,std,min,25%,50%,75%,max,count,mean,std,min,25%,50%,75%,max
ModelName,,,,,,,,,,,,,,,,
cgbs,20.0,0.5018580934494824,0.13744354841184883,0.275,0.4310606060606061,0.48003072196620583,0.5766369047619048,0.8205128205128205,20.0,0.7000705765263983,0.045661212105915526,0.6402116402116402,0.667472042679799,0.6863681196217322,0.7373574749968541,0.7885135135135135
coxnet,20.0,0.5608831483894583,0.12442134676031145,0.28846153846153844,0.4858775811209439,0.5638342845064468,0.6223739495798319,0.7890625,20.0,0.8452662460898501,0.0317800604452261,0.8070009460737938,0.822246248740296,0.8348001005232815,0.8647877577339854,0.919973544973545
deep_residual,20.0,0.4901883191271881,0.17106627117304604,0.30120481927710846,0.3487831858407079,0.4704761904761905,0.5783025568181819,0.9743589743589743,20.0,0.5091408855072234,0.07005836148186621,0.3701492537313433,0.47008402111250214,0.5166188883580187,0.5606306830695654,0.6317780580075663
deep_surv,20.0,0.521636189358867,0.14770418586790263,0.25806451612903225,0.3911576704545454,0.5441050528118755,0.5971153846153846,0.8095238095238095,20.0,0.49436112809199645,0.05947635357936851,0.34462982273201254,0.4720087563043699,0.4959254947613504,0.5359752959341225,0.5759892086330936
deep_surv_ori,20.0,0.4909204846438251,0.1354554329739726,0.21739130434782608,0.4027777777777778,0.4833880978459292,0.5794486215538848,0.7884615384615384,20.0,0.5089846524951585,0.06968238225772357,0.3840725806451613,0.4470032531452655,0.5133666642158665,0.5538965865052821,0.6078184110970997
fksvm_cosine,20.0,0.5509693305599098,0.09852154974174515,0.34615384615384615,0.48565828287532986,0.5570512820512821,0.6439075630252101,0.7,20.0,0.8456987000893283,0.030613151942374916,0.8098391674550615,0.8217637329154697,0.840331853792322,0.8634448581169893,0.9212962962962963
fksvm_linear,20.0,0.5544216870309251,0.0955047886587668,0.34615384615384615,0.484118291347207,0.5780564692982456,0.6305043522785458,0.6857142857142857,20.0,0.8563546050196852,0.03074997018076574,0.8183538315988647,0.8328445140033315,0.8493523729403574,0.8724455423310129,0.9318783068783069
fksvm_poly,20.0,0.5409996298592956,0.14872268186269702,0.2727272727272727,0.45897435897435895,0.568106587222774,0.6032258064516128,0.85,20.0,0.8967103746868791,0.0194278045021208,0.8711151736745887,0.882948449512466,0.8915962621607783,0.9116775774850825,0.9451058201058201
fksvm_rbf,20.0,0.5073506244784625,0.13614151243076925,0.24242424242424243,0.4482600732600733,0.5233935742971888,0.5611290322580645,0.8529411764705882,20.0,0.9012727137249049,0.019324506927335183,0.8720292504570384,0.8891452625335684,0.8955775818659016,0.9104902352562889,0.9490740740740741
fsvm,20.0,0.5386582589236368,0.11267917808202138,0.2692307692307692,0.48310539018503623,0.5416666666666667,0.6172861150070127,0.7301587301587301,20.0,0.8568320062063244,0.03071769591189322,0.8174077578051088,0.8327595424178297,0.8492979809700627,0.8752828689388312,0.9318783068783069
gbs,20.0,0.5667406666717849,0.1483562830798892,0.30303030303030304,0.47432471822774974,0.5512010113780026,0.6878293807641633,0.7948717948717948,20.0,0.9095684429162999,0.020314839923604576,0.8629032258064516,0.9022552296371313,0.9074524865664106,0.9239912744007365,0.9533783783783784
stacking_a,20.0,0.5616894248808089,0.1601002091608448,0.15151515151515152,0.5010770843036796,0.6033333333333333,0.6679606625258799,0.7578125,20.0,0.9774473480119429,0.0091532042466463,0.9607571560480148,0.9704641017554925,0.9785863223776325,0.9838215794062217,0.9927248677248677
xgb_surv,20.0,0.3876946788643704,0.12606827330150977,0.16666666666666666,0.3118628359592215,0.3646505376344086,0.4477543068088597,0.7,20.0,0.6733209423553064,0.05435567768819145,0.618334892422825,0.6335493636053886,0.660620487141002,0.6922820724324157,0.8129610115911485
