,C-index Test,C-index Test,C-index Test,C-index Test,C-index Test,C-index Test,C-index Test,C-index Test,C-index Train,C-index Train,C-index Train,C-index Train,C-index Train,C-index Train,C-index Train,C-index Train
,count,mean,std,min,25%,50%,75%,max,count,mean,std,min,25%,50%,75%,max
ModelName,,,,,,,,,,,,,,,,
cgbs,20.0,0.574109746120352,0.16534958212691267,0.2,0.4988738738738739,0.5696649029982364,0.6708119383825417,0.8360655737704918,20.0,0.8570221308563472,0.040258501371927415,0.7852184565128624,0.8331221515268611,0.8624928724781958,0.891409048372003,0.9046875
coxnet,20.0,0.6448594196801125,0.11092139498421989,0.3791469194312796,0.5853950827276944,0.6537875234521576,0.7170157929370475,0.8009259259259259,20.0,1.0,0.0,1.0,1.0,1.0,1.0,1.0
deep_residual,20.0,0.6233198520017782,0.19249407354373235,0.2716049382716049,0.5135442802713502,0.6329039319693526,0.7400940968903919,0.9458128078817734,20.0,0.5167539722378826,0.1294679272727097,0.24768160741885625,0.4642211309926412,0.5219400961419943,0.5821851230187396,0.759110269758637
deep_surv,20.0,0.5303150187439056,0.16774567427595977,0.25118483412322273,0.38995327102803745,0.5191007437457742,0.6511428571428572,0.8191489361702128,20.0,0.5310346759359585,0.10719071209616568,0.29041429731925267,0.481729610744464,0.5400263657807715,0.6174173038829368,0.6705702647657841
deep_surv_ori,20.0,0.525258591651909,0.2131446869885532,0.04310344827586207,0.4313375875875876,0.514018691588785,0.6707248473159756,0.8191489361702128,20.0,0.4915629961091688,0.09045421973243105,0.27342158859470467,0.4561038229441492,0.4914315347875097,0.5649188902145736,0.6251531237239689
fksvm_cosine,20.0,0.7522473408732556,0.1155487898877793,0.5319148936170213,0.6903430482349294,0.7638009049773755,0.8317142857142857,0.9278350515463918,20.0,0.9999784296807593,9.64654002372737e-05,0.9995685936151855,1.0,1.0,1.0,1.0
fksvm_linear,20.0,0.5789401324160981,0.2475361427987646,0.1542056074766355,0.44555078084058275,0.6477203647416414,0.7368678774928774,0.9918032786885246,20.0,0.7884709006773195,0.04069281633245067,0.7068965517241379,0.7669990865413634,0.7892097683689974,0.8183103393289116,0.870162932790224
fksvm_poly,20.0,0.7066545085221939,0.10081278902575552,0.49390243902439024,0.6476266601082145,0.7341677718832891,0.7786006546644844,0.8934426229508197,20.0,0.9990853743555765,0.0009412919060681994,0.9969924812030075,0.998243673636684,0.9993226516574876,1.0,1.0
fksvm_rbf,20.0,0.7131995870776751,0.09683195142295639,0.5308641975308642,0.6381011796733214,0.7122388345792601,0.7733929792568954,0.9344262295081968,20.0,1.0,0.0,1.0,1.0,1.0,1.0,1.0
fsvm,20.0,0.7339939416791481,0.13126752192589697,0.44075829383886256,0.6832932028540502,0.7477303070761014,0.8074468085106383,0.9508196721311475,20.0,0.9995613537962862,0.001082685384683791,0.9966871746332229,1.0,1.0,1.0,1.0
gbs,20.0,0.5464238172686215,0.14148890745508402,0.32978723404255317,0.42466897856242114,0.5884537037037036,0.6479318103149878,0.8092783505154639,20.0,0.998588542904038,0.0008676251428046755,0.9967333605553287,0.998015183284362,0.9984498149750096,0.9993163584247976,1.0
nsvm,20.0,0.7249548875227868,0.15053844766100494,0.30851063829787234,0.6959630778257407,0.7499118165784833,0.817298219022357,0.9262295081967213,20.0,1.0,0.0,1.0,1.0,1.0,1.0,1.0
stacking_a,20.0,0.6720386857314672,0.16592137877743596,0.31402439024390244,0.5948275862068966,0.696813725490196,0.8019583333333333,0.9226804123711341,20.0,1.0,0.0,1.0,1.0,1.0,1.0,1.0
xgb_surv,20.0,0.5274369065073296,0.1718278981446059,0.2923076923076923,0.3980927863588551,0.4930159450350013,0.6045762165646149,0.8770491803278688,20.0,0.6594584657905374,0.035214868869030344,0.5915593705293276,0.6396397445385873,0.6581060695693327,0.6839460020693542,0.7293276661514683
