,C-index Test,C-index Test,C-index Test,C-index Test,C-index Test,C-index Test,C-index Test,C-index Test,C-index Train,C-index Train,C-index Train,C-index Train,C-index Train,C-index Train,C-index Train,C-index Train
,count,mean,std,min,25%,50%,75%,max,count,mean,std,min,25%,50%,75%,max
ModelName,,,,,,,,,,,,,,,,
cgbs,20.0,0.801587574764385,0.041275547399781454,0.7201923076923077,0.7808065010613899,0.8002901478922488,0.8309125996273296,0.8705526116578349,20.0,0.8702656533386856,0.005737558955070757,0.8581054300435988,0.8673857562819314,0.8694765729207208,0.8725391213226191,0.8816087003337999
coxnet,20.0,0.7866813800431877,0.039476917338944116,0.7187153931339978,0.758618442682432,0.7904879464453447,0.8166325890566069,0.8407079646017699,20.0,1.0,0.0,1.0,1.0,1.0,1.0,1.0
fksvm_cosine,20.0,0.8103959286498215,0.03743301249054082,0.7461538461538462,0.7793354201473572,0.81504895700298,0.8372290089542311,0.8712273641851107,20.0,0.998252817211273,0.00024879752758317765,0.9977305114266111,0.9981026816126675,0.9982831742494265,0.9984026821121053,0.9988151658767772
fksvm_linear,20.0,0.7451844305044257,0.050845651936987014,0.6519230769230769,0.712434639570674,0.7529008346805302,0.7795311652603831,0.8304314912944739,20.0,0.7626499066289835,0.009784929042431022,0.7439211739153467,0.7579532174694131,0.7611730176312264,0.7714250163865667,0.7777593177161212
fksvm_poly,20.0,0.7960048813363034,0.04544871749168764,0.6798076923076923,0.7692007598194408,0.8021144968669263,0.8215146968032988,0.8637071651090342,20.0,0.9976739533316543,0.0040894845486185005,0.9855826397146255,0.998234412468424,0.9990422953398934,0.9995925652585277,0.9997331767970543
fksvm_rbf,20.0,0.808747708477344,0.03699536007625012,0.7437125748502994,0.7888227904981719,0.8158183545945756,0.8291978592200979,0.8730529595015576,20.0,0.9993888534156543,0.00011796992441064907,0.9990499815274186,0.9993261954319609,0.9993940614997976,0.9994578488028077,0.9996149959093316
fsvm,20.0,0.7972698727078235,0.04403801840042247,0.6855769230769231,0.7757964592719109,0.7952976687288242,0.8262985665316768,0.8660105980317941,20.0,1.0,0.0,1.0,1.0,1.0,1.0,1.0
gbs,20.0,0.8189935055117253,0.03626136481514295,0.7130742049469965,0.8023593819475323,0.8188634621990858,0.8353390900815786,0.8917445482866043,20.0,0.9857057383337853,0.0013415881305795388,0.982896873731222,0.9851774497186062,0.9857103231738618,0.9863401984029639,0.988720792505653
nsvm,20.0,0.7972464839049335,0.042580849278763155,0.6932692307692307,0.7770332083885186,0.7921673736435939,0.8264996928389978,0.8652535957607873,20.0,1.0,0.0,1.0,1.0,1.0,1.0,1.0
stacking_a,20.0,0.7881740679979897,0.03909965394179844,0.7173076923076923,0.7631338876070363,0.7947067229645254,0.8179882481045797,0.8415124698310539,20.0,1.0,0.0,1.0,1.0,1.0,1.0,1.0
tony_nn,20.0,0.7153893204782636,0.08423824226017686,0.5579868708971554,0.6457792698335217,0.7389128582441808,0.784459021237404,0.8255159474671669,20.0,0.7820242494408365,0.028592079221455582,0.7263178755449862,0.7659058698667941,0.7845094694408619,0.8020468636492991,0.8271487789042601
xgb_surv,20.0,0.7628755035054725,0.04729420633712662,0.6500324044069994,0.740293265059986,0.765062110068971,0.7830258646392367,0.844062947067239,20.0,0.9076878349979867,0.012227132432886426,0.8804028535459505,0.9018483659684158,0.9113260181347227,0.9166401940029048,0.9236818493692933
