feature	OS_OS	OS_vital_status	
TCGA-12-1098	121	1	
TCGA-12-1089	177	1	
TCGA-06-0877	204	0	
TCGA-16-1055	313	1	
TCGA-14-1396	34	1	
TCGA-06-0878	218	0	
TCGA-06-0879	699	0	
TCGA-06-1800	815	1	
TCGA-06-1801	263	0	
TCGA-06-1802	239	0	
TCGA-27-2527	438	1	
TCGA-06-1805	127	0	
TCGA-27-2524	231	1	
TCGA-41-3915	183	0	
TCGA-06-0876	271	0	
TCGA-27-2528	479	1	
TCGA-14-0813	41	1	
TCGA-14-0812	99	1	
TCGA-14-1795	59	1	
TCGA-14-1794	30	1	
TCGA-19-0955	358	0	
TCGA-19-0957	665	1	
TCGA-06-0875	279	0	
TCGA-14-0783	188	1	
TCGA-14-0787	68	1	
TCGA-14-0786	701	1	
TCGA-19-1390	772	1	
TCGA-14-0789	342	1	
TCGA-16-1056	426	1	
TCGA-32-1982	142	1	
TCGA-06-2559	149	1	
TCGA-06-2558	380	1	
TCGA-32-1986	386	1	
TCGA-32-1987	451	1	
TCGA-27-2518	752	1	
TCGA-27-2519	316	0	
TCGA-06-2557	33	1	
TCGA-14-0736	459	1	
TCGA-32-4719	330	1	
TCGA-14-1401	114	1	
TCGA-27-2523	489	1	
TCGA-14-1402	974	1	
TCGA-27-2521	316	0	
TCGA-32-2632	269	1	
TCGA-32-2634	270	0	
TCGA-32-2638	224	0	
TCGA-27-2526	87	1	
TCGA-06-2566	182	1	
TCGA-06-2567	133	1	
TCGA-06-2564	181	0	
TCGA-06-2565	207	0	
TCGA-06-2562	86	0	
TCGA-06-2563	259	0	
TCGA-06-2570	285	0	
TCGA-06-2569	13	0	
TCGA-41-2571	26	1	
TCGA-41-2572	406	1	
TCGA-41-2573	272	0	
TCGA-41-2575	290	1	
TCGA-27-1830	154	1	
TCGA-27-1831	504	1	
TCGA-28-2509	145	0	
TCGA-26-1439	422	1	
TCGA-26-1438	305	0	
TCGA-32-2495	456	1	
TCGA-32-2494	632	1	
TCGA-28-2506	205	0	
TCGA-16-1060	278	1	
TCGA-32-2491	372	1	
TCGA-28-2502	20	0	
TCGA-16-1045	882	1	
TCGA-14-2554	532	1	
TCGA-16-1047	139	1	
TCGA-14-1037	587	1	
TCGA-14-1034	485	1	
TCGA-19-2631	213	1	
TCGA-12-0670	790	1	
TCGA-02-2483	465	0	
TCGA-02-2485	469	0	
TCGA-02-2486	492	0	
TCGA-06-0882	165	0	
TCGA-06-0881	178	0	
TCGA-12-1600	448	1	
TCGA-12-3652	1062	1	
TCGA-12-3653	442	1	
TCGA-12-3650	333	1	
TCGA-12-3651	386	1	
TCGA-06-0155	318	1	
TCGA-12-1602	205	1	
TCGA-12-1599	781	1	
TCGA-12-1598	476	1	
TCGA-28-2513	222	0	
TCGA-19-2629	737	1	
TCGA-16-1460	195	0	
TCGA-15-1446	581	0	
TCGA-15-1447	1618	0	
TCGA-19-2621	33	1	
TCGA-19-2620	148	1	
TCGA-19-2623	229	0	
TCGA-19-2625	124	1	
TCGA-19-2624	5	1	
TCGA-12-1097	442	1	
TCGA-02-2470	393	1	
TCGA-12-1095	482	1	
TCGA-06-0939	637	0	
TCGA-32-1973	641	1	
TCGA-12-3644	1818	1	
TCGA-14-4157	103	0	
TCGA-12-3646	1338	1	
TCGA-32-1977	3	0	
TCGA-32-1976	15	1	
TCGA-32-1978	482	1	
TCGA-12-1088	3880	1	
TCGA-12-3648	819	1	
TCGA-14-1454	917	1	
TCGA-14-1455	28	1	
TCGA-14-1456	1245	0	
TCGA-14-1451	703	1	
TCGA-14-1452	216	1	
TCGA-14-1453	35	1	
TCGA-06-2561	282	0	
TCGA-14-1458	202	1	
TCGA-14-1459	378	1	
TCGA-06-1084	226	0	
TCGA-16-0861	130	0	
TCGA-06-1086	208	1	
TCGA-06-1087	123	1	
TCGA-19-1791	4	0	
TCGA-12-3649	463	1	
TCGA-14-0866	801	1	
TCGA-14-0867	62	1	
TCGA-14-0865	502	1	
TCGA-41-3393	135	1	
TCGA-41-3392	30	1	
TCGA-32-4208	400	0	
TCGA-19-0964	103	0	
TCGA-02-2466	511	1	
TCGA-19-0960	262	0	
TCGA-19-0962	20	1	
TCGA-19-0963	434	1	
TCGA-14-1829	217	0	
TCGA-14-2555	242	0	
TCGA-14-1825	232	1	
TCGA-14-1827	179	1	
TCGA-14-1821	540	1	
TCGA-14-1823	542	1	
TCGA-41-4097	6	1	
TCGA-28-2514	160	0	
TCGA-19-1787	385	1	
TCGA-19-1786	217	0	
TCGA-14-0871	879	1	
TCGA-19-1789	99	1	
TCGA-28-1750	253	0	
TCGA-28-1751	231	0	
TCGA-28-1752	257	0	
TCGA-28-1753	36	0	
TCGA-28-1755	46	1	
TCGA-28-1756	86	0	
TCGA-28-1757	4	0	
TCGA-32-4211	383	1	
TCGA-32-4210	112	1	
TCGA-32-4213	356	0	
TCGA-14-0790	418	1	
TCGA-12-0828	271	1	
TCGA-12-0829	626	1	
TCGA-12-0826	845	1	
TCGA-12-0827	1179	1	
TCGA-12-0820	562	1	
TCGA-12-0821	323	1	
TCGA-12-0822	715	1	
TCGA-14-3477	114	0	
TCGA-16-0846	119	1	
TCGA-19-1392	111	1	
TCGA-32-1970	467	1	
TCGA-16-0848	535	1	
TCGA-16-0849	793	0	
TCGA-27-1834	1232	1	
TCGA-27-1835	648	1	
TCGA-27-1836	914	1	
TCGA-27-1837	427	1	
TCGA-16-1063	425	1	
TCGA-16-1062	646	1	
TCGA-27-1832	300	1	
TCGA-27-1833	737	1	
TCGA-19-2619	294	0	
TCGA-27-1838	350	1	
TCGA-12-1092	661	1	
TCGA-12-1093	486	1	
TCGA-12-1090	230	1	
TCGA-12-1091	1010	1	
TCGA-12-1096	277	1	
TCGA-28-1746	6	0	
TCGA-12-1094	372	1	
TCGA-15-1449	404	1	
TCGA-28-1749	279	0	
TCGA-12-1099	125	1	
TCGA-28-1747	77	1	
TCGA-26-1443	216	0	
TCGA-26-1440	296	0	
TCGA-14-0817	164	1	
TCGA-26-1799	285	1	
TCGA-32-1991	515	1	
TCGA-16-0850	498	1	
TCGA-19-1387	181	0	
TCGA-19-1386	276	1	
TCGA-19-1385	327	1	
TCGA-32-2615	485	1	
TCGA-32-2616	223	1	
TCGA-19-1389	141	1	
TCGA-19-1388	394	1	
